<?xml version="1.0" encoding="UTF-8"?>
<COLLADA xmlns="http://www.collada.org/2005/11/COLLADASchema" version="1.4.1">
<!--
# File generated by ImageToStl.com - Free Image and 3D model conversion tools
-->
  <library_effects>
    <effect id="effect_0">
        <profile_COMMON>
          <technique sid="common">
            <phong>
              <diffuse>
                <color>0.86275 0.86275 0.86275 1</color>
              </diffuse>
            </phong>
          </technique>
        </profile_COMMON>
    </effect>
  </library_effects>
  <library_materials>
    <material id="mat_0">
      <instance_effect url="#effect_0"/>
    </material>
  </library_materials>
  <library_geometries>
    <geometry id="geometry_0">
      <mesh>
        <source id="pos_0">
          <float_array id="pos_0-array" count="5997">3481.323 1949.917 3 1930.299 1949.917 3 1930.299 290.3018 3 859.2069 293.9283 3 827.5231 310.9901 3 367.4904 2.607346 3 204.0188 3145.246 3 204.0201 2949.061 3 217.0967 3376.722 3 204.021 2844.437 3 204.021 2611.65 3 278.5651 2388.03 3 3463.054 3771.128 3 3455.207 3772.625 3 3389.777 3491.707 3 266.7942 3376.709 3 204.2178 2883.671 3 490.4257 3376.709 3 497.4214 3376.375 3 234.0981 3376.722 3 204.0201 2896.749 3 204.0223 2873.208 3 1502.642 387.1003 3 1501.715 376.6381 3 1791.897 385.7789 3 489.1187 2388.005 3 496.698 2387.593 3 785.9702 3338.776 3 503.0886 2384.631 3 785.9702 2437.717 3 505.9781 2379.663 3 785.9709 2388.019 3 210.7992 3376.783 3 206.1152 3374.625 3 204.0188 3362.337 3 831.7427 3472.93 3 847.4363 3481.857 3 693.1337 3719.999 3 746.7535 3747.722 3 736.2911 3743.329 3 712.7508 3731.628 3 1981.3 3764.334 3 1892.356 3489.916 3 1902.818 3486.856 3 1939.437 3464.314 3 2109 3701.269 3 1922.435 3477.632 3 2083.308 3718.973 3 1913.281 3482.368 3 1953.351 3448.627 3 2152.621 3661.817 3 2133.004 3681.378 3 2202.971 3600.351 3 2197.034 3609.506 3 2166.981 3647.432 3 2806.505 3473.275 3 2589.447 3656.545 3 2782.037 3448.649 3 2578.056 3643.518 3 2567.882 3631.768 3 2832.697 3777.467 3 2824.85 3776.801 3 2861.433 3493.114 3 3477.347 3412.026 3 3762.525 3480.034 3 3758.341 3494.42 3 298.4366 1932.908 3 315.5388 1954.761 3 475.4057 2305.64 3 332.899 1968.802 3 353.0919 1978.458 3 563.1694 1621.635 3 801.8885 1462.109 3 576.7599 1641.03 3 816.8879 1480.864 3 507.5442 3423.789 3 506.8719 3409.404 3 784.7654 3387.165 3 506.1194 3392.402 3 506.3149 3384.929 3 504.0228 3378.806 3 444.6536 2388.02 3 620.8311 3662.362 3 815.0755 3458.175 3 634.2831 3676.174 3 662.6687 3699.535 3 1956.452 3771.09 3 1947.298 3772.625 3 1939.451 3773.848 3 2036.228 3744.299 3 2025.766 3748.521 3 2015.303 3752.91 3 2312.19 2292.776 3 2291.915 2311.57 3 2103.098 2088.077 3 1753.747 2.615571 3 1883.219 2.615571 3 1486.44 338.7121 3 1904.143 0 3 1495.856 357.0212 3 1442.485 299.4783 3 1496.118 2.607346 3 1454.255 306.6448 3 1471.966 321.0552 3 785.9695 2365.786 3 505.8924 2374.94 3 784.9969 2355.324 3 770.8289 2274.241 3 501.1901 2350.092 3 761.1891 2244.161 3 494.2064 2331.783 3 755.5264 2229.776 3 483.8713 1996.596 3 493.0259 1999.055 3 802.756 337.3992 3 494.8437 372.7059 3 491.1101 360.9357 3 553.2953 1605.941 3 531.5703 1564.092 3 788.6065 1433.337 3 438.1151 2280.099 3 425.0373 2275.391 3 290.6306 1917.214 3 204.8094 2392.15 3 210.3133 2388.094 3 204.0271 2398.493 3 218.4066 2388.03 3 204.0205 2406.34 3 204.0205 2456.036 3 785.9895 3396.319 3 511.1318 3446.022 3 510.0415 3439.483 3 2011.492 2211.466 3 2022.621 2190.541 3 2276.985 2334.404 3 2031.658 2174.848 3 2070.827 2121.228 3 1984.839 2287.318 3 1988.501 2272.932 3 2269.948 2355.328 3 2818.275 3480.842 3 2660.068 3715.529 3 2623.316 3687.708 3 2731.997 3752.652 3 2834.128 3487.637 3 2742.459 3756.861 3 2750.306 3759.61 3 3447.869 3463.195 3 3616.066 3701.535 3 3432.941 3475.537 3 3595.141 3715.795 3 3576.832 3727.387 3 3459.504 3450.235 3 3659.445 3662.372 3 3648.76 3673.568 3 3773 3302.169 3 3773 0 3 1892.373 290.3018 3 1881.911 290.4279 3 1793.531 374.0089 3 1843.985 303.9503 3 1832.215 311.8494 3 1420.253 291.5791 3 1408.482 289.5775 3 1395.404 289.016 3 362.2465 1980.969 3 370.0932 1983.036 3 379.2478 1984.998 3 466.87 1992.738 3 117.7018 116.3852 3 319.5312 313.9527 3 305.636 328.2503 3 37.71317 230.1633 3 49.80242 206.6233 3 290.7392 351.7906 3 65.61232 180.4673 3 100.6873 134.6947 3 449.8853 2285.932 3 835.6675 1495.549 3 636.8817 1704.562 3 613.361 1681.911 3 1755.615 1565.397 3 1750.371 1577.167 3 1491.943 1452.951 3 1729.838 1613.785 3 1483.783 1466.029 3 1502.642 1413.717 3 1788.503 1445.08 3 1787.431 1451.619 3 765.0626 3754.941 3 865.7454 3488.58 3 775.5247 3758.583 3 1880.6 3780.113 3 1864.907 3782.134 3 1864.68 3495.664 3 1846.597 3782.127 3 1837.443 3780.825 3 3062.841 2725.081 3 2924.241 2478.358 3 2934.704 2472.499 3 2528.791 2697.966 3 2534.14 2688.812 3 2773.387 2836.598 3 2541.842 2675.733 3 2779.521 2824.828 3 2937.319 2291.945 3 3086.384 2051.581 3 3116.22 2073.465 3 2338.346 2279.162 3 2224.545 2013.74 3 2233.699 2010.55 3 1991.757 2262.47 3 2003.292 2229.775 3 2008 2219.313 3 1972.132 3392.392 3 1972.891 3378.006 3 2264.976 3414.645 3 3725.384 3575.503 3 3720.271 3584.657 3 3468.716 3435.566 3 3710.449 3600.351 3 3695.03 3622.583 3 3755.163 3504.882 3 3750.324 3519.268 3 3731.008 3565.04 3 3771.693 3419.875 3 3480.013 3393.717 3 3772.62 3402.874 3 3481.321 3378.023 3 3772.999 3368.871 3 3481.321 3293.017 3 3481.323 3000.056 3 1818.473 324.8734 3 1807.183 340.0063 3 1801.952 349.1608 3 1875.372 291.2648 3 1855.755 297.5682 3 1499.178 367.4835 3 881.4395 289.2357 3 874.9005 290.2156 3 868.3615 291.3258 3 773.4131 2283.395 3 775.3092 2291.242 3 504.1417 2361.862 3 780.772 2320.013 3 504.8766 2367.093 3 782.37 2331.783 3 783.3517 2342.246 3 391.018 1985.221 3 404.0959 1985.98 3 417.1739 1987.458 3 5.23138 338.7104 3 8.489132 321.709 3 282.9486 377.9464 3 1565.436 1760.114 3 1435.944 1503.536 3 1450.33 1496.553 3 1468.385 1482.757 3 1658.289 1698.412 3 1612.516 1733.422 3 1790.372 1346.995 3 1790.149 1413.693 3 1503.401 1400.639 3 508.6299 3431.636 3 528.2655 3516.643 3 522.4641 3499.641 3 790.848 3417.244 3 520.0002 3490.487 3 517.8934 3481.332 3 515.8245 3470.87 3 788.1815 3405.474 3 513.5358 3460.407 3 511.7283 3452.561 3 566.8323 3595.11 3 558.0452 3580.724 3 801.4647 3440.784 3 551.3558 3568.954 3 797.0536 3432.938 3 612.0505 3653.956 3 591.3989 3630.858 3 573.3634 3605.573 3 825.2209 3771.223 3 813.4509 3768.488 3 881.4388 3491.783 3 805.6041 3766.446 3 784.6794 3761.14 3 865.7626 3776.887 3 891.9012 3493.091 3 882.764 3778.266 3 912.826 3493.096 3 901.0731 3779.508 3 1922.45 3776.791 3 1913.295 3777.656 3 1875.354 3493.208 3 1904.141 3778.209 3 1894.986 3778.433 3 2600.288 2602.432 3 2610.371 2593.225 3 2794.194 2807.454 3 2633.028 2573.476 3 2810.437 2793.716 3 2547.819 2666.579 3 2564.902 2642.208 3 2584.202 2619.498 3 3179.771 2626.042 3 3163.541 2644.351 3 2953.013 2457.328 3 3147.847 2660.045 3 2943.858 2466.143 3 3124.307 2683.029 3 3078.534 2715.697 3 3251.542 2483.492 3 3246.965 2497.878 3 2980.189 2411.556 3 3238.726 2521.419 3 2969.426 2436.168 3 3215.042 2572.422 3 3187.081 2615.802 3 2765.605 2856.215 3 2493.402 2793.435 3 2768.404 2848.368 3 2497.744 2775.126 3 2500.241 2765.971 3 2511.436 2734.584 3 2517.805 2720.198 3 2552.123 3609.515 3 2536.586 3585.975 3 2772.594 3431.648 3 3256.749 2459.952 3 3255.466 2466.491 3 3253.243 2475.646 3 2952.074 2304.156 3 3062.843 2037.182 3 2924.241 2284.595 3 3045.842 2028.276 3 3019.686 2016.493 3 2907.24 2277.533 3 2993.53 2006.737 3 2139.538 2059.369 3 2175.131 2036.975 3 2212.774 2018.632 3 2260.566 3452.571 3 2258.173 3465.648 3 1971.203 3406.777 3 2256.329 3474.803 3 1967.802 3418.547 3 2249.843 3498.343 3 2243.774 3516.652 3 2265.108 2385.407 3 1974.811 2346.168 3 2266.416 2373.637 3 1975.948 2335.706 3 1976.287 2329.167 3 2721.534 3748.428 3 2711.072 3743.951 3 2683.608 3730.017 3 2850.97 3491.428 3 2800.002 3772.63 3 2790.847 3770.57 3 2807.849 3773.858 3 2843.159 3778.22 3 2871.895 3494.421 3 2854.929 3778.776 3 3769.077 3444.723 3 3478.72 3402.871 3 3770.122 3438.185 3 3771.47 3430.338 3 1798.447 357.0075 3 1795.1 366.1622 3 423.7127 1987.837 3 434.1753 1988.215 3 442.0219 1989.092 3 451.1765 1990.267 3 457.7155 1991.628 3 669.5728 2100.304 3 683.9769 2115.998 3 728.6917 2176.156 3 743.1938 2202.312 3 796.2563 347.8618 3 791.853 357.0163 3 788.6096 366.1708 3 435.4817 299.404 3 418.7672 293.0204 3 808.2026 1789.203 3 800.3558 1786.914 3 867.0544 1508.365 3 1766.299 1539.241 3 1498.705 1434.642 3 1770.733 1526.163 3 1777.442 1505.238 3 1501.281 1425.487 3 1779.482 1497.392 3 1786.386 1459.466 3 1785.509 1466.005 3 1789.064 1432.002 3 541.5683 3549.337 3 536.8106 3537.567 3 531.8304 3525.797 3 851.3769 3775.617 3 840.9145 3774.125 3 833.0677 3772.646 3 2504.192 3516.662 3 2498.725 3498.353 3 2768.632 3422.493 3 2496.411 3490.506 3 2765.99 3414.647 3 2494.554 3482.659 3 2492.292 3472.197 3 2515.871 3545.433 3 2511.529 3534.971 3 2507.841 3525.816 3 3192.354 2153.928 3 2964.652 2318.702 3 3169.624 2124.688 3 3144.106 2097.85 3 2347.501 2276.351 3 2291.242 1994.018 3 2309.551 1990.671 3 2250.7 2004.717 3 2274.241 1997.759 3 2283.395 1995.68 3 2236.412 3536.269 3 2222.667 3566.348 3 2209.497 3589.889 3 2265.102 3358.409 3 1973.44 3333.541 3 2265.108 3218.461 3 2781.693 3768.309 3 2771.23 3765.62 3 2760.768 3762.574 3 2879.777 3779.529 3 2886.281 3494.422 3 2925.559 3779.518 3 2989.592 3494.417 3 3320.504 3779.518 3 3368.853 3494.417 3 3359.182 3780.462 3 3381.931 3493.109 3 3412.05 3778.209 3 3397.664 3778.963 3 3567.677 3732.438 3 3533.675 3748.596 3 3415.933 3484.657 3 3524.52 3752.255 3 3514.058 3756.395 3 3499.672 3761.136 3 3485.286 3765.244 3 3473.516 3768.502 3 3768.135 3451.262 3 3766.462 3461.725 3 3764.382 3472.187 3 1371.864 289.016 3 1262.008 289.0129 3 890.5939 289.0129 3 502.1805 2001.409 3 521.7973 2007.581 3 536.183 2013.323 3 480.2787 338.7033 3 465.1881 320.6165 3 447.2518 305.9039 3 284.0012 1893.674 3 8.29041 1940.754 3 6.765485 1931.599 3 12.54606 302.0922 3 17.56012 283.7831 3 286.2455 364.8687 3 1707.985 1645.172 3 1690.16 1666.267 3 1672.675 1684.406 3 1784.216 1475.159 3 1781.966 1486.929 3 1804.734 3493.092 3 1820.427 3493.093 3 1804.748 3779.518 3 1829.582 3494.02 3 1826.981 3779.52 3 1840.044 3495.701 3 1853.122 3495.707 3 1081.531 3493.092 3 1073.703 3779.518 3 958.616 3779.508 3 2832.669 2782.494 3 2735.919 2515.346 3 2849.67 2777.655 3 2748.997 2510.468 3 2820.899 2787.661 3 2716.302 2523.48 3 2726.764 2518.981 3 2657.451 2555.913 3 2667.914 2549.492 3 2707.147 2527.848 3 3000.066 2753.375 3 2899.393 2486.584 3 3028.838 2742.414 3 3039.3 2737.3 3 2484.98 2837.9 3 2486.301 2830.053 3 2762.429 2876.303 3 2487.438 2820.899 3 2490.59 2805.205 3 2762.048 2896.757 3 2482.587 2861.44 3 2483.567 2847.054 3 2484.981 3432.963 3 2483.568 3423.809 3 2762.799 3396.337 3 2482.588 3408.115 3 2762.04 3366.258 3 2489.323 3460.427 3 2487.439 3448.657 3 2486.301 3440.81 3 3231.483 2223.242 3 3235.367 2232.396 3 2977.089 2342.243 3 3240.141 2244.166 3 2981.17 2354.013 3 3200.214 2165.699 3 3214.116 2187.931 3 3227.939 2215.395 3 2316.09 1990.395 3 2325.245 1988.982 3 2364.502 2273.879 3 1977.372 2322.628 3 1978.823 2316.089 3 2268.288 2363.175 3 1981.294 2304.319 3 1983.361 2295.164 3 1973.452 3137.382 3 1973.452 2391.941 3 1974.38 2361.862 3 3439.514 3775.59 3 3430.359 3776.857 3 3421.204 3777.656 3 1503.401 400.1782 3 1791.296 396.2413 3 1503.95 421.103 3 1503.95 1371.868 3 1503.95 1314.32 3 1790.372 481.2396 3 1790.369 426.3206 3 704.1968 2140.027 3 722.3422 2165.694 3 784.6829 393.6344 3 495.635 380.5526 3 785.6169 384.4799 3 786.9108 375.3254 3 6.17063 1922.444 3 5.254269 1913.29 3 282.4712 1880.596 3 5.180717 1905.443 3 282.4712 1849.209 3 3.77214 1896.289 3 715.3492 1756.625 3 707.5025 1752.336 3 848.7454 1502.245 3 686.5777 1740.396 3 677.4232 1734.641 3 791.2012 1784.351 3 758.5064 1774.647 3 724.5037 1760.81 3 1489.583 1786.401 3 1418.942 1508.388 3 1498.738 1784.112 3 1528.817 1774.709 3 2763.383 2505.459 3 2771.229 2503.039 3 2780.384 2500.542 3 3262.921 2418.103 3 3261.783 2427.257 3 2983.628 2397.17 3 3260.37 2436.412 3 3257.924 2452.105 3 3250.525 2276.861 3 3252.892 2284.708 3 3255.468 2295.17 3 2971.298 2000.119 3 2892.854 2274.604 3 2946.45 1994.391 3 2263.733 3429.03 3 2262.738 3436.877 3 2261.391 3444.724 3 546.6454 2017.835 3 558.4155 2023.04 3 595.0339 2042.565 3 499.6817 1447.698 3 785.6174 1416.336 3 500.891 1456.853 3 786.7284 1424.182 3 525.4485 1549.706 3 520.998 1537.936 3 509.891 1502.626 3 507.9647 1493.471 3 505.7036 1483.009 3 503.7039 1472.547 3 210.555 48.06638 3 349.1674 296.4184 3 336.0894 302.7351 3 134.703 100.6787 3 158.0507 81.28917 3 183.0913 64.16524 3 364.8788 2270.317 3 355.7242 2269.009 3 286.9687 1905.444 3 20.92385 273.3206 3 25.87628 257.6273 3 33.6343 239.318 3 10.46276 312.5545 3 1.862764 1883.211 3 1.307845 1870.133 3 280.7841 1832.208 3 2937.292 2769.797 3 2930.754 2770.457 3 2890.239 2487.957 3 2911.136 2773.707 3 2882.392 2488.703 3 2482.209 3392.421 3 2482.209 3247.247 3 2762.04 2975.224 3 2482.209 2967.372 3 2482.209 2877.134 3 3262.883 2343.559 3 3263.314 2355.329 3 2984.4 2374.938 3 3264.241 2368.407 3 2984.4 2385.4 3 3264.241 2388.024 3 3263.314 2407.641 3 3257.155 2304.325 3 3259.548 2317.403 3 2983.628 2367.091 3 3260.372 2326.557 3 3261.785 2335.712 3 626.2131 2063.12 3 655.1923 2087.108 3 280.6077 400.1788 3 1.307368 370.0973 3 281.213 388.4087 3 2.796888 357.0195 3 4.295707 346.557 3 1.307845 1846.593 3 0.7529259 1832.207 3 279.8561 1806.052 3 0.0003576279 1792.973 3 279.8561 477.3286 3 0.0003576279 516.5645 3 279.8551 426.3346 3 0 430.2558 3 0.5548 385.7908 3 1458.197 1792.848 3 1412.403 1509.696 3 1466.043 1791.645 3 1477.813 1789.383 3 2896.751 2774.76 3 2886.289 2775.132 3 2870.622 2488.718 3 2870.595 2775.134 3 2853.62 2489.49 3 2973.911 2761.14 3 2963.448 2763.942 3 2945.139 2768.207 3 2815.694 2494.055 3 2823.541 2492.812 3 2857.517 2776.439 3 2828.772 2492.093 3 2839.234 2491.334 3 2885.007 2273.689 3 2921.602 1990.402 3 2938.603 1992.795 3 2577.635 1987.828 3 2895.446 1987.828 3 2871.929 2272.93 3 2904.6 1987.891 3 2912.447 1988.991 3 498.8102 1435.928 3 498.2567 1426.774 3 784.6833 1407.181 3 498.2554 1417.619 3 784.6539 1384.949 3 379.2466 289.1342 3 357.028 3.732324 3 389.7089 289.008 3 401.479 289.5695 3 24.64318 2006.143 3 15.19835 1974.756 3 13.46672 1965.602 3 11.01708 1953.832 3 408.0359 2272.396 3 398.8813 2271.625 3 375.3411 2271.625 3 865.7455 1796.88 3 844.8209 1795.572 3 881.4403 1510.445 3 835.6662 1794.264 3 874.9013 1509.725 3 827.8195 1792.63 3 821.2806 1791.714 3 2334.399 1987.845 3 2346.169 1987.83 3 2377.58 2272.937 3 2380.172 1987.83 3 2425.968 2272.937 3 2666.614 2272.93 3 497.8835 1400.618 3 496.9479 1337.844 3 784.6539 614.6543 3 496.9468 935.0601 3 784.6534 434.1762 3 496.9468 417.171 3 496.1942 391.0152 3 241.942 33.40614 3 255.02 27.87399 3 364.8609 291.5796 3 278.5603 19.97483 3 371.3999 290.3243 3 120.3213 2157.847 3 100.7372 2136.923 3 877.5157 1797.639 3 894.5181 1511.256 3 899.7481 1798.188 3 1451.657 1794.103 3 1443.811 1795.451 3 1404.557 1510.483 3 1425.502 1796.877 3 1394.094 1511.044 3 1408.5 1797.636 3 1370.554 1511.803 3 1380.461 1798.798 3 2789.539 2498.632 3 2800.001 2496.565 3 2809.155 2495.034 3 319.1021 9.669662 3 329.5643 7.563949 3 345.2579 5.223036 3 347.8775 2268.25 3 338.7229 2267.335 3 324.3372 2264.746 3 317.7982 2263.608 3 309.9515 2261.816 3 300.7969 2259.528 3 292.9502 2257.671 3 283.7955 2255.134 3 272.0254 2251.551 3 253.7162 2244.397 3 240.6384 2239.454 3 232.7917 2236.053 3 81.51162 2113.493 3 64.30853 2088.534 3 56.0863 2074.148 3 48.73001 2061.071 3 28.9458 2017.913 3 221.0215 2230.744 3 210.5591 2224.911 3 202.7124 2220.203 3 188.3267 2211.99 3 136.0148 2172.324 3 942.9052 1511.797 3 1037.065 1511.803 3 1242.39 1798.188 3 1352.265 1798.184 3 506.3149 3384.929 0 506.1194 3392.402 0 506.8719 3409.404 0 802.756 337.3992 0 827.5231 310.9901 0 367.4904 2.607346 0 465.1881 320.6165 0 480.2787 338.7033 0 784.6534 434.1762 0 447.2518 305.9039 0 865.7454 3488.58 0 504.0228 3378.806 0 497.4214 3376.375 0 503.0886 2384.631 0 496.698 2387.593 0 5.23138 338.7104 0 4.295707 346.557 0 282.9486 377.9464 0 305.636 328.2503 0 65.61232 180.4673 0 290.7392 351.7906 0 49.80242 206.6233 0 37.71317 230.1633 0 319.5312 313.9527 0 117.7018 116.3852 0 100.6873 134.6947 0 401.479 289.5695 0 418.7672 293.0204 0 1420.253 291.5791 0 1442.485 299.4783 0 1496.118 2.607346 0 553.2953 1605.941 0 563.1694 1621.635 0 801.8885 1462.109 0 576.7599 1641.03 0 816.8879 1480.864 0 847.4363 3481.857 0 831.7427 3472.93 0 815.0755 3458.175 0 281.213 388.4087 0 17.56012 283.7831 0 12.54606 302.0922 0 286.2455 364.8687 0 10.46276 312.5545 0 8.489132 321.709 0 531.5703 1564.092 0 788.6065 1433.337 0 525.4485 1549.706 0 491.1101 360.9357 0 494.8437 372.7059 0 495.635 380.5526 0 755.5264 2229.776 0 743.1938 2202.312 0 494.2064 2331.783 0 33.6343 239.318 0 25.87628 257.6273 0 20.92385 273.3206 0 1753.747 2.615571 0 475.4057 2305.64 0 728.6917 2176.156 0 722.3422 2165.694 0 785.9702 3338.776 0 785.9702 2437.717 0 784.7654 3387.165 0 505.9781 2379.663 0 785.9895 3396.319 0 3758.341 3494.42 0 3762.525 3480.034 0 3477.347 3412.026 0 1454.255 306.6448 0 1471.966 321.0552 0 1883.219 2.615571 0 1486.44 338.7121 0 1855.755 297.5682 0 1875.372 291.2648 0 1904.143 0 0 1881.911 290.4279 0 507.9647 1493.471 0 509.891 1502.626 0 520.998 1537.936 0 669.5728 2100.304 0 655.1923 2087.108 0 626.2131 2063.12 0 449.8853 2285.932 0 704.1968 2140.027 0 683.9769 2115.998 0 761.1891 2244.161 0 501.1901 2350.092 0 770.8289 2274.241 0 204.2178 2883.671 0 204.0201 2896.749 0 204.0201 2949.061 0 801.4647 3440.784 0 797.0536 3432.938 0 790.848 3417.244 0 1864.907 3782.134 0 1880.6 3780.113 0 1864.68 3495.664 0 336.0894 302.7351 0 158.0507 81.28917 0 134.703 100.6787 0 349.1674 296.4184 0 210.555 48.06638 0 183.0913 64.16524 0 435.4817 299.404 0 784.6829 393.6344 0 785.6169 384.4799 0 786.9108 375.3254 0 788.6096 366.1708 0 791.853 357.0163 0 796.2563 347.8618 0 1371.864 289.016 0 1395.404 289.016 0 1408.482 289.5775 0 1750.371 1577.167 0 1491.943 1452.951 0 1729.838 1613.785 0 1483.783 1466.029 0 1707.985 1645.172 0 613.361 1681.911 0 636.8817 1704.562 0 835.6675 1495.549 0 505.7036 1483.009 0 786.7284 1424.182 0 503.7039 1472.547 0 500.891 1456.853 0 785.6174 1416.336 0 499.6817 1447.698 0 784.6833 1407.181 0 498.2567 1426.774 0 498.8102 1435.928 0 784.6539 1384.949 0 497.8835 1400.618 0 498.2554 1417.619 0 490.4257 3376.709 0 266.7942 3376.709 0 788.1815 3405.474 0 2103.098 2088.077 0 2291.915 2311.57 0 2312.19 2292.776 0 1922.435 3477.632 0 2109 3701.269 0 1939.437 3464.314 0 2133.004 3681.378 0 1953.351 3448.627 0 2152.621 3661.817 0 1913.281 3482.368 0 2036.228 3744.299 0 2083.308 3718.973 0 851.3769 3775.617 0 865.7626 3776.887 0 891.9012 3493.091 0 882.764 3778.266 0 912.826 3493.096 0 364.8609 291.5796 0 255.02 27.87399 0 241.942 33.40614 0 357.028 3.732324 0 379.2466 289.1342 0 389.7089 289.008 0 859.2069 293.9283 0 868.3615 291.3258 0 874.9005 290.2156 0 1793.531 374.0089 0 1795.1 366.1622 0 1501.715 376.6381 0 1892.373 290.3018 0 1930.299 290.3018 0 3773 0 0 1690.16 1666.267 0 1468.385 1482.757 0 1672.675 1684.406 0 1435.944 1503.536 0 1565.436 1760.114 0 1450.33 1496.553 0 1612.516 1733.422 0 1658.289 1698.412 0 100.7372 2136.923 0 315.5388 1954.761 0 81.51162 2113.493 0 298.4366 1932.908 0 64.30853 2088.534 0 56.0863 2074.148 0 48.73001 2061.071 0 290.6306 1917.214 0 28.9458 2017.913 0 504.1417 2361.862 0 775.3092 2291.242 0 773.4131 2283.395 0 785.9709 2388.019 0 785.9695 2365.786 0 505.8924 2374.94 0 278.5651 2388.03 0 204.021 2611.65 0 204.021 2844.437 0 217.0967 3376.722 0 234.0981 3376.722 0 3720.271 3584.657 0 3725.384 3575.503 0 3468.716 3435.566 0 2660.068 3715.529 0 2818.275 3480.842 0 2806.505 3473.275 0 2567.882 3631.768 0 2578.056 3643.518 0 2782.037 3448.649 0 2589.447 3656.545 0 2623.316 3687.708 0 2166.981 3647.432 0 2197.034 3609.506 0 2202.971 3600.351 0 2070.827 2121.228 0 2031.658 2174.848 0 2276.985 2334.404 0 2022.621 2190.541 0 2011.492 2211.466 0 3246.965 2497.878 0 2980.189 2411.556 0 3238.726 2521.419 0 2969.426 2436.168 0 2610.371 2593.225 0 2600.288 2602.432 0 2794.194 2807.454 0 1892.356 3489.916 0 1981.3 3764.334 0 1902.818 3486.856 0 2015.303 3752.91 0 2025.766 3748.521 0 1939.451 3773.848 0 1947.298 3772.625 0 1956.452 3771.09 0 508.6299 3431.636 0 510.0415 3439.483 0 1807.183 340.0063 0 1818.473 324.8734 0 1832.215 311.8494 0 1499.178 367.4835 0 1843.985 303.9503 0 1495.856 357.0212 0 496.1942 391.0152 0 496.9468 417.171 0 784.6539 614.6543 0 496.9468 935.0601 0 496.9479 1337.844 0 466.87 1992.738 0 457.7155 1991.628 0 408.0359 2272.396 0 451.1765 1990.267 0 442.0219 1989.092 0 595.0339 2042.565 0 558.4155 2023.04 0 438.1151 2280.099 0 546.6454 2017.835 0 425.0373 2275.391 0 536.183 2013.323 0 521.7973 2007.581 0 240.6384 2239.454 0 253.7162 2244.397 0 353.0919 1978.458 0 272.0254 2251.551 0 362.2465 1980.969 0 120.3213 2157.847 0 136.0148 2172.324 0 332.899 1968.802 0 188.3267 2211.99 0 202.7124 2220.203 0 210.5591 2224.911 0 784.9969 2355.324 0 783.3517 2342.246 0 504.8766 2367.093 0 782.37 2331.783 0 780.772 2320.013 0 489.1187 2388.005 0 444.6536 2388.02 0 204.0223 2873.208 0 206.1152 3374.625 0 210.7992 3376.783 0 204.0188 3362.337 0 204.0188 3145.246 0 1930.299 1949.917 0 3481.323 1949.917 0 3773 3302.169 0 3480.013 3393.717 0 3771.47 3430.338 0 3771.693 3419.875 0 3731.008 3565.04 0 3750.324 3519.268 0 3755.163 3504.882 0 2750.306 3759.61 0 2834.128 3487.637 0 2742.459 3756.861 0 2731.997 3752.652 0 2233.699 2010.55 0 2224.545 2013.74 0 2338.346 2279.162 0 805.6041 3766.446 0 881.4388 3491.783 0 813.4509 3768.488 0 825.2209 3771.223 0 833.0677 3772.646 0 840.9145 3774.125 0 881.4395 289.2357 0 890.5939 289.0129 0 1262.008 289.0129 0 1498.705 1434.642 0 1777.442 1505.238 0 1501.281 1425.487 0 1779.482 1497.392 0 1781.966 1486.929 0 1755.615 1565.397 0 1766.299 1539.241 0 1770.733 1526.163 0 370.0932 1983.036 0 338.7229 2267.335 0 379.2478 1984.998 0 347.8775 2268.25 0 391.018 1985.221 0 355.7242 2269.009 0 404.0959 1985.98 0 309.9515 2261.816 0 317.7982 2263.608 0 324.3372 2264.746 0 283.7955 2255.134 0 292.9502 2257.671 0 300.7969 2259.528 0 221.0215 2230.744 0 232.7917 2236.053 0 24.64318 2006.143 0 286.9687 1905.444 0 15.19835 1974.756 0 282.4712 1880.596 0 5.254269 1913.29 0 284.0012 1893.674 0 6.17063 1922.444 0 6.765485 1931.599 0 3481.321 3378.023 0 3447.869 3463.195 0 3659.445 3662.372 0 3459.504 3450.235 0 3695.03 3622.583 0 3710.449 3600.351 0 3576.832 3727.387 0 3595.141 3715.795 0 3432.941 3475.537 0 3616.066 3701.535 0 3648.76 3673.568 0 3415.933 3484.657 0 3533.675 3748.596 0 3567.677 3732.438 0 2683.608 3730.017 0 2711.072 3743.951 0 2721.534 3748.428 0 2243.774 3516.652 0 2249.843 3498.343 0 1967.802 3418.547 0 2256.329 3474.803 0 1971.203 3406.777 0 2258.173 3465.648 0 2260.566 3452.571 0 2212.774 2018.632 0 2175.131 2036.975 0 2139.538 2059.369 0 3045.842 2028.276 0 3019.686 2016.493 0 2924.241 2284.595 0 2907.24 2277.533 0 3062.843 2037.182 0 2937.319 2291.945 0 3086.384 2051.581 0 3116.22 2073.465 0 2952.074 2304.156 0 3144.106 2097.85 0 2977.089 2342.243 0 3235.367 2232.396 0 3231.483 2223.242 0 2772.594 3431.648 0 2536.586 3585.975 0 2552.123 3609.515 0 2489.323 3460.427 0 2492.292 3472.197 0 2765.99 3414.647 0 2511.436 2734.584 0 2768.404 2848.368 0 2517.805 2720.198 0 2773.387 2836.598 0 2528.791 2697.966 0 3163.541 2644.351 0 2953.013 2457.328 0 3147.847 2660.045 0 2943.858 2466.143 0 1894.986 3778.433 0 1904.141 3778.209 0 1875.354 3493.208 0 1913.295 3777.656 0 1922.45 3776.791 0 1829.582 3494.02 0 1804.748 3779.518 0 1840.044 3495.701 0 1826.981 3779.52 0 1853.122 3495.707 0 1837.443 3780.825 0 1846.597 3782.127 0 901.0731 3779.508 0 958.616 3779.508 0 1081.531 3493.092 0 1073.703 3779.518 0 1804.734 3493.092 0 1820.427 3493.093 0 531.8304 3525.797 0 536.8106 3537.567 0 345.2579 5.223036 0 329.5643 7.563949 0 371.3999 290.3243 0 319.1021 9.669662 0 278.5603 19.97483 0 1798.447 357.0075 0 1801.952 349.1608 0 1418.942 1508.388 0 1498.738 1784.112 0 1528.817 1774.709 0 715.3492 1756.625 0 724.5037 1760.81 0 848.7454 1502.245 0 758.5064 1774.647 0 867.0544 1508.365 0 791.2012 1784.351 0 800.3558 1786.914 0 677.4232 1734.641 0 686.5777 1740.396 0 707.5025 1752.336 0 502.1805 2001.409 0 493.0259 1999.055 0 483.8713 1996.596 0 279.8561 1806.052 0 0.7529259 1832.207 0 280.7841 1832.208 0 1.307845 1846.593 0 282.4712 1849.209 0 1.307845 1870.133 0 1.862764 1883.211 0 3.77214 1896.289 0 5.180717 1905.443 0 2.796888 357.0195 0 1.307368 370.0973 0 280.6077 400.1788 0 0.5548 385.7908 0 279.8551 426.3346 0 0 430.2558 0 279.8561 477.3286 0 0.0003576279 516.5645 0 0.0003576279 1792.973 0 218.4066 2388.03 0 210.3133 2388.094 0 204.8094 2392.15 0 3481.323 3000.056 0 3481.321 3293.017 0 3772.999 3368.871 0 3772.62 3402.874 0 3478.72 3402.871 0 3769.077 3444.723 0 3770.122 3438.185 0 3397.664 3778.963 0 3412.05 3778.209 0 3368.853 3494.417 0 3381.931 3493.109 0 2871.895 3494.421 0 2879.777 3779.529 0 2886.281 3494.422 0 2925.559 3779.518 0 2989.592 3494.417 0 3320.504 3779.518 0 3359.182 3780.462 0 2824.85 3776.801 0 2861.433 3493.114 0 2807.849 3773.858 0 2850.97 3491.428 0 2800.002 3772.63 0 2790.847 3770.57 0 2760.768 3762.574 0 2771.23 3765.62 0 2781.693 3768.309 0 1977.372 2322.628 0 1976.287 2329.167 0 2266.416 2373.637 0 2008 2219.313 0 2003.292 2229.775 0 2269.948 2355.328 0 1991.757 2262.47 0 1988.501 2272.932 0 2209.497 3589.889 0 2222.667 3566.348 0 2236.412 3536.269 0 2309.551 1990.671 0 2291.242 1994.018 0 2347.501 2276.351 0 3169.624 2124.688 0 2964.652 2318.702 0 3192.354 2153.928 0 3251.542 2483.492 0 3253.243 2475.646 0 3255.466 2466.491 0 2504.192 3516.662 0 2507.841 3525.816 0 2768.632 3422.493 0 2511.529 3534.971 0 2515.871 3545.433 0 2493.402 2793.435 0 2765.605 2856.215 0 2497.744 2775.126 0 2500.241 2765.971 0 2779.521 2824.828 0 2541.842 2675.733 0 2534.14 2688.812 0 3179.771 2626.042 0 3187.081 2615.802 0 3215.042 2572.422 0 2924.241 2478.358 0 3062.841 2725.081 0 2934.704 2472.499 0 3078.534 2715.697 0 3124.307 2683.029 0 507.5442 3423.789 0 511.1318 3446.022 0 511.7283 3452.561 0 513.5358 3460.407 0 746.7535 3747.722 0 765.0626 3754.941 0 1412.403 1509.696 0 1458.197 1792.848 0 1466.043 1791.645 0 1477.813 1789.383 0 1489.583 1786.401 0 434.1753 1988.215 0 423.7127 1987.837 0 398.8813 2271.625 0 417.1739 1987.458 0 375.3411 2271.625 0 364.8788 2270.317 0 8.29041 1940.754 0 11.01708 1953.832 0 13.46672 1965.602 0 204.0271 2398.493 0 204.0205 2406.34 0 204.0205 2456.036 0 3455.207 3772.625 0 3463.054 3771.128 0 3389.777 3491.707 0 3473.516 3768.502 0 3485.286 3765.244 0 3499.672 3761.136 0 3514.058 3756.395 0 3524.52 3752.255 0 3421.204 3777.656 0 3430.359 3776.857 0 3439.514 3775.59 0 2832.697 3777.467 0 2843.159 3778.22 0 2854.929 3778.776 0 1975.948 2335.706 0 1974.811 2346.168 0 2265.108 2385.407 0 3227.939 2215.395 0 3214.116 2187.931 0 3200.214 2165.699 0 3240.141 2244.166 0 2981.17 2354.013 0 3250.525 2276.861 0 2483.568 3423.809 0 2762.799 3396.337 0 2482.588 3408.115 0 2762.04 3366.258 0 2482.209 3392.421 0 2584.202 2619.498 0 2564.902 2642.208 0 2547.819 2666.579 0 2633.028 2573.476 0 2810.437 2793.716 0 2657.451 2555.913 0 2973.911 2761.14 0 3000.066 2753.375 0 2899.393 2486.584 0 3028.838 2742.414 0 3039.3 2737.3 0 2667.914 2549.492 0 2820.899 2787.661 0 2707.147 2527.848 0 558.0452 3580.724 0 566.8323 3595.11 0 573.3634 3605.573 0 620.8311 3662.362 0 634.2831 3676.174 0 662.6687 3699.535 0 693.1337 3719.999 0 712.7508 3731.628 0 736.2911 3743.329 0 775.5247 3758.583 0 784.6794 3761.14 0 1791.897 385.7789 0 1502.642 387.1003 0 1503.401 400.1782 0 1787.431 1451.619 0 1502.642 1413.717 0 1786.386 1459.466 0 1404.557 1510.483 0 1443.811 1795.451 0 1451.657 1794.103 0 808.2026 1789.203 0 821.2806 1791.714 0 874.9013 1509.725 0 827.8195 1792.63 0 881.4403 1510.445 0 835.6662 1794.264 0 3764.382 3472.187 0 3766.462 3461.725 0 3768.135 3451.262 0 2261.391 3444.724 0 2262.738 3436.877 0 1972.132 3392.392 0 2263.733 3429.03 0 2264.976 3414.645 0 1984.839 2287.318 0 1983.361 2295.164 0 2268.288 2363.175 0 1981.294 2304.319 0 1978.823 2316.089 0 2283.395 1995.68 0 2274.241 1997.759 0 2250.7 2004.717 0 2993.53 2006.737 0 2971.298 2000.119 0 2892.854 2274.604 0 3263.314 2355.329 0 2984.4 2374.938 0 3264.241 2368.407 0 2984.4 2385.4 0 2494.554 3482.659 0 2496.411 3490.506 0 2498.725 3498.353 0 2484.981 3432.963 0 2486.301 3440.81 0 2487.439 3448.657 0 2780.384 2500.542 0 2771.229 2503.039 0 2849.67 2777.655 0 515.8245 3470.87 0 517.8934 3481.332 0 520.0002 3490.487 0 1784.216 1475.159 0 1785.509 1466.005 0 1370.554 1511.803 0 1380.461 1798.798 0 1394.094 1511.044 0 1408.5 1797.636 0 1425.502 1796.877 0 1974.38 2361.862 0 1973.452 2391.941 0 2265.108 3218.461 0 1973.452 3137.382 0 2265.102 3358.409 0 1973.44 3333.541 0 1972.891 3378.006 0 2364.502 2273.879 0 2325.245 1988.982 0 2316.09 1990.395 0 3257.155 2304.325 0 3259.548 2317.403 0 2983.628 2367.091 0 3255.468 2295.17 0 3252.892 2284.708 0 3262.883 2343.559 0 3261.785 2335.712 0 3260.372 2326.557 0 3256.749 2459.952 0 3257.924 2452.105 0 2983.628 2397.17 0 3260.37 2436.412 0 3261.783 2427.257 0 2490.59 2805.205 0 2487.438 2820.899 0 2762.429 2876.303 0 2486.301 2830.053 0 2484.98 2837.9 0 2716.302 2523.48 0 2832.669 2782.494 0 2726.764 2518.981 0 2763.383 2505.459 0 2748.997 2510.468 0 2735.919 2515.346 0 541.5683 3549.337 0 551.3558 3568.954 0 591.3989 3630.858 0 612.0505 3653.956 0 3262.921 2418.103 0 3263.314 2407.641 0 3264.241 2388.024 0 2483.567 2847.054 0 2482.587 2861.44 0 2762.048 2896.757 0 2482.209 2877.134 0 2762.04 2975.224 0 2482.209 2967.372 0 2482.209 3247.247 0 2853.62 2489.49 0 2839.234 2491.334 0 2870.595 2775.134 0 2828.772 2492.093 0 2857.517 2776.439 0 2823.541 2492.812 0 2815.694 2494.055 0 2870.622 2488.718 0 2886.289 2775.132 0 2882.392 2488.703 0 522.4641 3499.641 0 528.2655 3516.643 0 1788.503 1445.08 0 1789.064 1432.002 0 1503.401 1400.639 0 1790.149 1413.693 0 1503.95 1371.868 0 1790.372 1346.995 0 1503.95 1314.32 0 1790.372 481.2396 0 1503.95 421.103 0 1790.369 426.3206 0 1791.296 396.2413 0 844.8209 1795.572 0 865.7455 1796.88 0 894.5181 1511.256 0 877.5157 1797.639 0 942.9052 1511.797 0 899.7481 1798.188 0 1037.065 1511.803 0 1242.39 1798.188 0 1352.265 1798.184 0 2946.45 1994.391 0 2938.603 1992.795 0 2885.007 2273.689 0 2921.602 1990.402 0 2930.754 2770.457 0 2890.239 2487.957 0 2911.136 2773.707 0 2896.751 2774.76 0 2937.292 2769.797 0 2945.139 2768.207 0 2963.448 2763.942 0 2809.155 2495.034 0 2800.001 2496.565 0 2789.539 2498.632 0 2912.447 1988.991 0 2904.6 1987.891 0 2871.929 2272.93 0 2895.446 1987.828 0 2666.614 2272.93 0 2577.635 1987.828 0 2425.968 2272.937 0 2380.172 1987.83 0 2377.58 2272.937 0 2346.169 1987.83 0 2334.399 1987.845 0 3772.62 3402.874 -1.734723E-15 3772.999 3368.871 -1.734723E-15 3771.693 3419.875 -1.734723E-15 3771.47 3430.338 1.734723E-15 3771.693 3419.875 1.734723E-15 3770.122 3438.185 -1.734723E-15 3771.47 3430.338 -1.734723E-15 3764.382 3472.187 8.673617E-16 3766.462 3461.725 8.673617E-16 3758.341 3494.42 8.673617E-16 3762.525 3480.034 8.673617E-16 3750.324 3519.268 -1.734723E-15 3755.163 3504.882 -1.734723E-15 3710.449 3600.351 1.734723E-15 3720.271 3584.657 1.734723E-15 3695.03 3622.583 -1.734723E-15 3710.449 3600.351 -1.734723E-15 3659.445 3662.372 1.734723E-15 3695.03 3622.583 1.734723E-15 3576.832 3727.387 -1.734723E-15 3595.141 3715.795 -1.734723E-15 3524.52 3752.255 8.673617E-16 3533.675 3748.596 8.673617E-16 3485.286 3765.244 -1.734723E-15 3499.672 3761.136 -1.734723E-15 3473.516 3768.502 -1.734723E-15 3439.514 3775.59 -1.734723E-15 3455.207 3772.625 -1.734723E-15 3430.359 3776.857 -1.734723E-15 3412.05 3778.209 -1.734723E-15 3421.204 3777.656 -1.734723E-15 2832.697 3777.467 -1.734723E-15 2843.159 3778.22 -1.734723E-15 2790.847 3770.57 -1.734723E-15 2800.002 3772.63 -1.734723E-15 2771.23 3765.62 -1.734723E-15 2781.693 3768.309 -1.734723E-15 2750.306 3759.61 8.673617E-16 2760.768 3762.574 8.673617E-16 2742.459 3756.861 8.673617E-16 2731.997 3752.652 -1.734723E-15 2742.459 3756.861 -1.734723E-15 2623.316 3687.708 -1.734723E-15 2660.068 3715.529 -1.734723E-15 2567.882 3631.768 8.673617E-16 2578.056 3643.518 8.673617E-16 2511.529 3534.971 -1.734723E-15 2515.871 3545.433 -1.734723E-15 2507.841 3525.816 -1.734723E-15 2504.192 3516.662 8.673617E-16 2507.841 3525.816 8.673617E-16 2498.725 3498.353 -1.734723E-15 2504.192 3516.662 -1.734723E-15 2489.323 3460.427 -1.734723E-15 2492.292 3472.197 -1.734723E-15 2487.439 3448.657 -1.734723E-15 2486.301 3440.81 -1.734723E-15 2483.568 3423.809 -1.734723E-15 2484.981 3432.963 -1.734723E-15 2483.567 2847.054 -1.734723E-15 2482.587 2861.44 -1.734723E-15 2484.98 2837.9 -1.734723E-15 2500.241 2765.971 8.673617E-16 2497.744 2775.126 8.673617E-16 2511.436 2734.584 -1.734723E-15 2500.241 2765.971 -1.734723E-15 2517.805 2720.198 -1.734723E-15 2534.14 2688.812 -1.734723E-15 2528.791 2697.966 -1.734723E-15 2600.288 2602.432 -1.734723E-15 2584.202 2619.498 -1.734723E-15 2610.371 2593.225 1.734723E-15 2600.288 2602.432 1.734723E-15 2716.302 2523.48 -1.734723E-15 2707.147 2527.848 -1.734723E-15 2748.997 2510.468 -1.734723E-15 2735.919 2515.346 -1.734723E-15 2771.229 2503.039 -1.734723E-15 2763.383 2505.459 -1.734723E-15 2780.384 2500.542 -1.734723E-15 2800.001 2496.565 -1.734723E-15 2789.539 2498.632 -1.734723E-15 2815.694 2494.055 8.673617E-16 2809.155 2495.034 8.673617E-16 2839.234 2491.334 1.734723E-15 2828.772 2492.093 1.734723E-15 2853.62 2489.49 8.673617E-16 2839.234 2491.334 8.673617E-16 2870.622 2488.718 -1.734723E-15 2853.62 2489.49 -1.734723E-15 2882.392 2488.703 -1.734723E-15 2890.239 2487.957 -1.734723E-15 2943.858 2466.143 -1.734723E-15 2934.704 2472.499 -1.734723E-15 2969.426 2436.168 1.734723E-15 2953.013 2457.328 1.734723E-15 2980.189 2411.556 -1.734723E-15 2969.426 2436.168 -1.734723E-15 2983.628 2397.17 -1.734723E-15 2977.089 2342.243 -1.734723E-15 2981.17 2354.013 -1.734723E-15 2964.652 2318.702 -1.734723E-15 2924.241 2284.595 8.673617E-16 2937.319 2291.945 8.673617E-16 2907.24 2277.533 -1.734723E-15 2924.241 2284.595 -1.734723E-15 2892.854 2274.604 8.673617E-16 2907.24 2277.533 8.673617E-16 2885.007 2273.689 8.673617E-16 2364.502 2273.879 -1.734723E-15 2377.58 2272.937 -1.734723E-15 2347.501 2276.351 -1.734723E-15 2338.346 2279.162 1.734723E-15 2347.501 2276.351 1.734723E-15 2291.915 2311.57 1.734723E-15 2312.19 2292.776 1.734723E-15 2276.985 2334.404 8.673617E-16 2291.915 2311.57 8.673617E-16 2269.948 2355.328 -1.734723E-15 2276.985 2334.404 -1.734723E-15 2266.416 2373.637 -1.734723E-15 2268.288 2363.175 -1.734723E-15 2264.976 3414.645 -1.734723E-15 2265.102 3358.409 -1.734723E-15 2261.391 3444.724 -1.734723E-15 2262.738 3436.877 -1.734723E-15 2258.173 3465.648 -1.734723E-15 2260.566 3452.571 -1.734723E-15 2249.843 3498.343 -1.734723E-15 2256.329 3474.803 -1.734723E-15 2197.034 3609.506 8.673617E-16 2202.971 3600.351 8.673617E-16 2109 3701.269 -1.734723E-15 2133.004 3681.378 -1.734723E-15 2083.308 3718.973 -1.734723E-15 2036.228 3744.299 -1.734723E-15 1981.3 3764.334 -1.734723E-15 2015.303 3752.91 -1.734723E-15 1939.451 3773.848 -1.734723E-15 1947.298 3772.625 -1.734723E-15 1922.45 3776.791 -1.734723E-15 1880.6 3780.113 8.673617E-16 1894.986 3778.433 8.673617E-16 1864.907 3782.134 -1.734723E-15 1880.6 3780.113 -1.734723E-15 1826.981 3779.52 -1.734723E-15 1837.443 3780.825 -1.734723E-15 958.616 3779.508 -1.734723E-15 1073.703 3779.518 -1.734723E-15 882.764 3778.266 -1.734723E-15 901.0731 3779.508 -1.734723E-15 840.9145 3774.125 -1.734723E-15 851.3769 3775.617 -1.734723E-15 805.6041 3766.446 1.734723E-15 813.4509 3768.488 1.734723E-15 784.6794 3761.14 -1.734723E-15 805.6041 3766.446 -1.734723E-15 775.5247 3758.583 -1.734723E-15 746.7535 3747.722 -1.734723E-15 765.0626 3754.941 -1.734723E-15 736.2911 3743.329 -1.734723E-15 693.1337 3719.999 -1.734723E-15 712.7508 3731.628 -1.734723E-15 662.6687 3699.535 1.734723E-15 693.1337 3719.999 1.734723E-15 573.3634 3605.573 -1.734723E-15 591.3989 3630.858 -1.734723E-15 541.5683 3549.337 -1.734723E-15 551.3558 3568.954 -1.734723E-15 520.0002 3490.487 -1.734723E-15 522.4641 3499.641 -1.734723E-15 517.8934 3481.332 8.673617E-16 520.0002 3490.487 8.673617E-16 515.8245 3470.87 -1.734723E-15 517.8934 3481.332 -1.734723E-15 511.7283 3452.561 1.734723E-15 513.5358 3460.407 1.734723E-15 206.1152 3374.625 -1.734723E-15 210.7992 3376.783 -1.734723E-15 204.0188 3362.337 -1.734723E-15 204.0201 2949.061 1.734723E-15 204.0188 3145.246 1.734723E-15 204.0271 2398.493 1.734723E-15 204.0205 2406.34 1.734723E-15 489.1187 2388.005 -1.734723E-15 444.6536 2388.02 -1.734723E-15 496.698 2387.593 8.673617E-16 489.1187 2388.005 8.673617E-16 504.1417 2361.862 -1.734723E-15 504.8766 2367.093 -1.734723E-15 501.1901 2350.092 -1.734723E-15 494.2064 2331.783 -1.734723E-15 438.1151 2280.099 -1.734723E-15 449.8853 2285.932 -1.734723E-15 425.0373 2275.391 -1.734723E-15 408.0359 2272.396 -1.734723E-15 398.8813 2271.625 -1.734723E-15 338.7229 2267.335 -1.734723E-15 347.8775 2268.25 -1.734723E-15 317.7982 2263.608 -1.734723E-15 324.3372 2264.746 -1.734723E-15 232.7917 2236.053 -1.734723E-15 240.6384 2239.454 -1.734723E-15 120.3213 2157.847 -1.734723E-15 136.0148 2172.324 -1.734723E-15 28.9458 2017.913 8.673617E-16 48.73001 2061.071 8.673617E-16 15.19835 1974.756 -1.734723E-15 24.64318 2006.143 -1.734723E-15 13.46672 1965.602 -1.734723E-15 6.765485 1931.599 -1.734723E-15 8.29041 1940.754 -1.734723E-15 5.254269 1913.29 8.673617E-16 6.17063 1922.444 8.673617E-16 1.862764 1883.211 8.673617E-16 3.77214 1896.289 8.673617E-16 1.307368 370.0973 -1.734723E-15 0.5548 385.7908 -1.734723E-15 8.489132 321.709 -1.734723E-15 5.23138 338.7104 -1.734723E-15 10.46276 312.5545 -1.734723E-15 12.54606 302.0922 1.734723E-15 10.46276 312.5545 1.734723E-15 17.56012 283.7831 1.734723E-15 20.92385 273.3206 -1.734723E-15 17.56012 283.7831 -1.734723E-15 25.87628 257.6273 -1.734723E-15 117.7018 116.3852 1.734723E-15 100.6873 134.6947 1.734723E-15 158.0507 81.28917 -1.734723E-15 134.703 100.6787 -1.734723E-15 255.02 27.87399 -1.734723E-15 241.942 33.40614 -1.734723E-15 319.1021 9.669662 -1.734723E-15 278.5603 19.97483 -1.734723E-15 3481.323 3000.056 8.673617E-16 3481.321 3293.017 8.673617E-16 3480.013 3393.717 8.673617E-16 3478.72 3402.871 8.673617E-16 3477.347 3412.026 8.673617E-16 3468.716 3435.566 8.673617E-16 3381.931 3493.109 8.673617E-16 3368.853 3494.417 8.673617E-16 2989.592 3494.417 -1.734723E-15 2886.281 3494.422 -1.734723E-15 2871.895 3494.421 -1.734723E-15 2834.128 3487.637 -1.734723E-15 2818.275 3480.842 -1.734723E-15 2806.505 3473.275 1.734723E-15 2782.037 3448.649 1.734723E-15 2765.605 2856.215 -1.734723E-15 2768.404 2848.368 -1.734723E-15 2773.387 2836.598 -1.734723E-15 2779.521 2824.828 -1.734723E-15 2810.437 2793.716 -1.734723E-15 2820.899 2787.661 -1.734723E-15 2849.67 2777.655 -1.734723E-15 2857.517 2776.439 -1.734723E-15 2930.754 2770.457 8.673617E-16 2937.292 2769.797 8.673617E-16 2945.139 2768.207 -1.734723E-15 2963.448 2763.942 -1.734723E-15 2963.448 2763.942 8.673617E-16 2973.911 2761.14 8.673617E-16 3000.066 2753.375 8.673617E-16 3028.838 2742.414 8.673617E-16 3147.847 2660.045 -1.734723E-15 3163.541 2644.351 -1.734723E-15 3179.771 2626.042 8.673617E-16 3187.081 2615.802 8.673617E-16 3238.726 2521.419 1.734723E-15 3246.965 2497.878 1.734723E-15 3251.542 2483.492 8.673617E-16 3253.243 2475.646 8.673617E-16 3255.466 2466.491 -1.734723E-15 3256.749 2459.952 -1.734723E-15 3257.924 2452.105 -1.734723E-15 3260.37 2436.412 -1.734723E-15 3260.37 2436.412 8.673617E-16 3261.783 2427.257 8.673617E-16 3261.785 2335.712 8.673617E-16 3260.372 2326.557 8.673617E-16 3240.141 2244.166 8.673617E-16 3235.367 2232.396 8.673617E-16 3231.483 2223.242 -1.734723E-15 3227.939 2215.395 -1.734723E-15 3192.354 2153.928 -1.734723E-15 3169.624 2124.688 -1.734723E-15 3169.624 2124.688 1.734723E-15 3144.106 2097.85 1.734723E-15 2993.53 2006.737 -1.734723E-15 2971.298 2000.119 -1.734723E-15 2912.447 1988.991 8.673617E-16 2904.6 1987.891 8.673617E-16 2904.6 1987.891 1.734723E-15 2895.446 1987.828 1.734723E-15 2325.245 1988.982 -1.734723E-15 2316.09 1990.395 -1.734723E-15 2309.551 1990.671 -1.734723E-15 2291.242 1994.018 -1.734723E-15 2274.241 1997.759 -1.734723E-15 2250.7 2004.717 -1.734723E-15 2224.545 2013.74 -1.734723E-15 2212.774 2018.632 -1.734723E-15 2003.292 2229.775 -1.734723E-15 1991.757 2262.47 -1.734723E-15 1991.757 2262.47 8.673617E-16 1988.501 2272.932 8.673617E-16 1974.811 2346.168 -1.734723E-15 1974.38 2361.862 -1.734723E-15 1974.38 2361.862 8.673617E-16 1973.452 2391.941 8.673617E-16 1953.351 3448.627 1.734723E-15 1939.437 3464.314 1.734723E-15 1922.435 3477.632 1.734723E-15 1913.281 3482.368 1.734723E-15 1913.281 3482.368 -1.734723E-15 1902.818 3486.856 -1.734723E-15 1892.356 3489.916 1.734723E-15 1875.354 3493.208 1.734723E-15 1820.427 3493.093 8.673617E-16 1804.734 3493.092 8.673617E-16 891.9012 3493.091 8.673617E-16 881.4388 3491.783 8.673617E-16 865.7454 3488.58 8.673617E-16 831.7427 3472.93 -1.734723E-15 815.0755 3458.175 -1.734723E-15 797.0536 3432.938 -1.734723E-15 790.848 3417.244 -1.734723E-15 788.1815 3405.474 -1.734723E-15 785.9895 3396.319 -1.734723E-15 784.7654 3387.165 -1.734723E-15 785.9702 3338.776 -1.734723E-15 785.9702 2437.717 -1.734723E-15 785.9709 2388.019 -1.734723E-15 785.9695 2365.786 -1.734723E-15 783.3517 2342.246 -1.734723E-15 782.37 2331.783 -1.734723E-15 773.4131 2283.395 -1.734723E-15 770.8289 2274.241 -1.734723E-15 761.1891 2244.161 -1.734723E-15 728.6917 2176.156 -1.734723E-15 722.3422 2165.694 -1.734723E-15 683.9769 2115.998 1.734723E-15 669.5728 2100.304 1.734723E-15 669.5728 2100.304 -1.734723E-15 655.1923 2087.108 -1.734723E-15 595.0339 2042.565 -1.734723E-15 558.4155 2023.04 -1.734723E-15 521.7973 2007.581 -1.734723E-15 502.1805 2001.409 -1.734723E-15 493.0259 1999.055 -1.734723E-15 483.8713 1996.596 -1.734723E-15 483.8713 1996.596 1.734723E-15 466.87 1992.738 1.734723E-15 451.1765 1990.267 -1.734723E-15 442.0219 1989.092 -1.734723E-15 434.1753 1988.215 -1.734723E-15 423.7127 1987.837 -1.734723E-15 423.7127 1987.837 8.673617E-16 417.1739 1987.458 8.673617E-16 417.1739 1987.458 1.734723E-15 404.0959 1985.98 1.734723E-15 391.018 1985.221 -1.734723E-15 379.2478 1984.998 -1.734723E-15 298.4366 1932.908 -1.734723E-15 290.6306 1917.214 -1.734723E-15 286.9687 1905.444 -1.734723E-15 286.9687 1905.444 8.673617E-16 284.0012 1893.674 8.673617E-16 280.7841 1832.208 -1.734723E-15 279.8561 1806.052 -1.734723E-15 279.8561 477.3286 -1.734723E-15 279.8551 426.3346 -1.734723E-15 280.6077 400.1788 -1.734723E-15 281.213 388.4087 -1.734723E-15 282.9486 377.9464 -1.734723E-15 305.636 328.2503 1.734723E-15 319.5312 313.9527 1.734723E-15 319.5312 313.9527 8.673617E-16 336.0894 302.7351 8.673617E-16 364.8609 291.5796 -1.734723E-15 371.3999 290.3243 -1.734723E-15 379.2466 289.1342 1.734723E-15 389.7089 289.008 1.734723E-15 435.4817 299.404 -1.734723E-15 447.2518 305.9039 -1.734723E-15 480.2787 338.7033 -1.734723E-15 491.1101 360.9357 -1.734723E-15 494.8437 372.7059 1.734723E-15 495.635 380.5526 1.734723E-15 498.2567 1426.774 -1.734723E-15 498.8102 1435.928 -1.734723E-15 525.4485 1549.706 8.673617E-16 531.5703 1564.092 8.673617E-16 563.1694 1621.635 1.734723E-15 576.7599 1641.03 1.734723E-15 686.5777 1740.396 -1.734723E-15 707.5025 1752.336 -1.734723E-15 715.3492 1756.625 -1.734723E-15 724.5037 1760.81 -1.734723E-15 800.3558 1786.914 1.734723E-15 808.2026 1789.203 1.734723E-15 808.2026 1789.203 -1.734723E-15 821.2806 1791.714 -1.734723E-15 827.8195 1792.63 -1.734723E-15 835.6662 1794.264 -1.734723E-15 844.8209 1795.572 -1.734723E-15 877.5157 1797.639 -1.734723E-15 899.7481 1798.188 -1.734723E-15 1352.265 1798.184 -1.734723E-15 1380.461 1798.798 -1.734723E-15 1408.5 1797.636 -1.734723E-15 1425.502 1796.877 -1.734723E-15 1443.811 1795.451 -1.734723E-15 1451.657 1794.103 -1.734723E-15 1489.583 1786.401 -1.734723E-15 1498.738 1784.112 -1.734723E-15 1528.817 1774.709 8.673617E-16 1565.436 1760.114 8.673617E-16 1565.436 1760.114 -1.734723E-15 1612.516 1733.422 -1.734723E-15 1672.675 1684.406 -1.734723E-15 1690.16 1666.267 -1.734723E-15 1755.615 1565.397 -1.734723E-15 1766.299 1539.241 -1.734723E-15 1779.482 1497.392 -1.734723E-15 1781.966 1486.929 -1.734723E-15 1781.966 1486.929 8.673617E-16 1784.216 1475.159 8.673617E-16 1786.386 1459.466 -1.734723E-15 1787.431 1451.619 -1.734723E-15 1788.503 1445.08 8.673617E-16 1789.064 1432.002 8.673617E-16 1790.149 1413.693 8.673617E-16 1790.372 1346.995 8.673617E-16 1790.369 426.3206 8.673617E-16 1791.296 396.2413 8.673617E-16 1795.1 366.1622 -1.734723E-15 1798.447 357.0075 -1.734723E-15 1875.372 291.2648 -1.734723E-15 1881.911 290.4279 -1.734723E-15 881.4403 1510.445 -1.734723E-15 874.9013 1509.725 -1.734723E-15 867.0544 1508.365 8.673617E-16 848.7454 1502.245 8.673617E-16 801.8885 1462.109 8.673617E-16 788.6065 1433.337 8.673617E-16 784.6539 614.6543 8.673617E-16 784.6534 434.1762 8.673617E-16 784.6829 393.6344 8.673617E-16 785.6169 384.4799 -1.734723E-15 786.9108 375.3254 -1.734723E-15 788.6096 366.1708 8.673617E-16 791.853 357.0163 8.673617E-16 859.2069 293.9283 1.734723E-15 868.3615 291.3258 1.734723E-15 868.3615 291.3258 -1.734723E-15 874.9005 290.2156 -1.734723E-15 881.4395 289.2357 -1.734723E-15 1262.008 289.0129 8.673617E-16 1371.864 289.016 8.673617E-16 1395.404 289.016 8.673617E-16 1408.482 289.5775 8.673617E-16 1442.485 299.4783 1.734723E-15 1454.255 306.6448 1.734723E-15 1502.642 387.1003 -1.734723E-15 1503.401 400.1782 -1.734723E-15 1503.95 421.103 -1.734723E-15 1503.401 1400.639 8.673617E-16 1502.642 1413.717 8.673617E-16 1498.705 1434.642 -1.734723E-15 1491.943 1452.951 -1.734723E-15 1450.33 1496.553 -1.734723E-15 1435.944 1503.536 -1.734723E-15 1418.942 1508.388 -1.734723E-15 1404.557 1510.483 -1.734723E-15 1394.094 1511.044 -1.734723E-15 1037.065 1511.803 -1.734723E-15 942.9052 1511.797 -1.734723E-15 894.5181 1511.256 -1.734723E-15</float_array>
          <technique_common>
            <accessor source="#pos_0-array" count="1999" stride="3">
              <param name="X" type="float"/>
              <param name="Y" type="float"/>
              <param name="Z" type="float"/>
            </accessor>
          </technique_common>
        </source>
        <vertices id="vert_0">
          <input semantic="POSITION" source="#pos_0"/>
        </vertices>
        <triangles count="3040" material="mat_0Sb">
          <input semantic="VERTEX" source="#vert_0" offset="0"/>
          <p>0 1 2 3 4 5 6 7 8 9 10 11 12 13 14 15 16 17 17 16 18 15 19 16 16 19 8 16 8 20 20 8 7 9 11 21 22 23 24 25 26 27 27 26 28 27 28 29 29 28 30 29 30 31 32 33 8 8 33 34 8 34 6 35 36 37 38 39 36 36 39 40 36 40 37 41 42 43 44 45 46 46 45 47 46 47 48 49 50 44 44 50 51 44 51 45 52 53 49 49 53 54 49 54 50 55 56 57 57 56 58 57 58 59 60 61 62 63 64 65 66 67 68 68 67 69 68 69 70 71 72 73 73 72 74 75 76 77 77 76 78 77 78 27 27 78 79 27 79 25 25 79 80 25 80 81 81 80 18 81 18 11 11 18 16 11 16 21 82 83 84 84 83 35 84 35 85 85 35 37 41 86 42 42 86 87 42 87 88 47 89 48 48 89 90 48 90 43 43 90 91 43 91 41 92 93 94 95 96 97 97 96 98 97 98 99 100 101 102 102 101 95 102 95 103 103 95 97 31 30 104 104 30 105 104 105 106 107 108 109 109 108 110 109 110 111 112 113 68 114 115 4 4 115 116 71 117 72 72 117 118 72 118 119 120 121 122 123 124 125 125 124 126 125 126 127 127 126 11 127 11 128 128 11 10 129 130 131 132 133 134 134 133 135 134 135 93 93 135 136 93 136 94 137 138 139 140 141 55 55 141 142 55 142 56 143 144 145 145 144 146 147 148 149 149 148 150 149 150 151 152 153 147 147 153 154 147 154 148 155 0 156 156 0 2 156 2 98 98 2 157 98 157 158 24 23 159 160 161 23 100 162 101 101 162 163 101 163 164 70 165 68 68 165 166 68 166 167 112 68 168 169 170 171 172 173 174 174 173 175 174 175 171 171 175 176 171 176 169 66 68 122 122 68 177 122 177 120 178 179 74 74 179 180 74 180 73 181 182 183 183 182 184 183 184 185 186 187 188 38 36 189 189 36 190 189 190 191 192 193 194 194 193 195 194 195 196 197 198 199 200 201 202 202 201 203 202 203 204 205 206 207 208 209 210 138 211 139 139 211 212 139 212 134 134 212 213 134 213 132 214 215 216 217 218 219 219 218 220 219 220 152 152 220 221 152 221 153 65 222 63 63 222 223 63 223 219 219 223 224 219 224 217 225 226 227 227 226 228 227 228 229 229 228 230 229 230 155 155 230 231 155 231 0 161 232 23 23 232 233 23 233 234 158 235 98 98 235 236 98 236 99 99 236 160 99 160 237 237 160 23 238 239 5 5 239 240 5 240 3 107 241 108 108 241 242 108 242 243 243 242 244 243 244 245 245 244 246 245 246 105 105 246 247 105 247 106 167 248 68 68 248 249 68 249 250 251 252 253 254 255 256 257 258 256 256 258 259 256 259 254 260 261 262 129 131 77 77 131 263 77 263 75 264 265 266 266 265 267 267 268 266 266 268 269 266 269 270 270 269 271 270 271 129 129 271 272 129 272 130 273 274 275 275 274 276 275 276 277 82 278 83 83 278 279 83 279 275 275 279 280 275 280 273 281 282 283 283 282 284 283 284 190 190 284 285 190 285 191 286 287 288 288 287 289 288 289 290 88 291 42 42 291 292 42 292 293 293 292 294 293 294 194 194 294 295 194 295 192 296 297 298 298 297 299 298 299 300 203 301 204 204 301 302 204 302 298 298 302 303 298 303 296 304 305 306 306 305 307 306 307 308 308 307 309 308 309 199 199 309 310 199 310 197 311 312 313 313 312 314 313 314 315 315 314 316 315 316 306 306 316 317 306 317 304 318 319 320 320 319 321 321 322 320 320 322 323 320 323 202 202 323 324 202 324 200 59 325 57 57 325 326 57 326 327 328 329 313 313 329 330 313 330 311 205 207 331 206 205 332 332 205 333 332 333 334 334 333 335 335 333 336 335 336 337 94 338 92 92 338 339 92 339 208 208 339 340 208 340 209 341 342 343 343 342 344 343 344 345 345 344 346 345 346 347 348 349 350 350 349 351 350 351 352 143 353 144 144 353 354 144 354 140 140 354 355 140 355 141 356 357 358 62 61 356 356 61 359 356 359 357 60 62 360 360 62 361 360 361 362 363 364 365 365 364 226 365 226 366 366 226 225 234 367 23 23 367 368 23 368 159 250 369 68 68 369 370 68 370 371 371 372 68 68 372 373 68 373 168 374 375 68 68 376 110 110 376 377 110 377 111 114 378 115 115 378 379 115 379 380 381 382 5 383 384 385 181 183 386 386 183 387 386 387 388 388 387 389 389 387 390 389 390 391 186 188 390 390 188 392 390 392 393 262 261 186 186 261 394 186 394 187 276 395 277 277 395 396 277 396 266 266 396 397 266 397 264 286 398 287 287 398 399 287 399 283 283 399 400 283 400 281 401 402 403 403 402 404 403 404 405 405 404 406 405 406 407 326 408 327 327 408 409 327 409 403 403 409 410 403 410 401 411 412 413 413 412 331 413 331 414 414 331 207 415 416 417 210 418 208 208 418 419 208 419 415 415 419 420 415 420 416 347 421 345 345 421 422 345 422 49 49 422 423 49 423 52 216 215 424 424 215 425 424 425 426 358 427 356 356 427 428 356 428 144 144 428 429 144 429 146 362 361 430 430 361 431 430 431 432 432 431 433 432 433 434 434 433 435 434 435 436 437 438 435 435 438 439 435 439 436 151 440 149 149 440 441 149 441 442 442 441 443 442 443 444 444 445 442 442 445 446 442 446 14 14 446 447 14 447 12 363 448 364 364 448 449 364 449 63 63 449 450 63 450 64 164 451 101 101 451 452 101 452 5 5 452 453 5 453 238 113 454 68 68 454 455 68 455 456 116 457 4 4 457 458 4 458 5 5 458 459 5 459 381 460 461 462 463 464 465 184 466 185 185 466 467 185 467 257 257 467 468 257 468 258 393 469 390 390 469 470 390 470 391 471 472 473 473 472 474 473 474 475 475 474 476 475 476 196 196 476 477 196 477 194 471 473 478 478 473 479 478 479 289 289 479 480 289 480 290 481 482 483 483 482 484 485 486 481 481 486 487 481 487 482 299 488 300 300 488 489 300 489 485 485 489 490 485 490 486 491 492 493 493 492 198 493 198 494 494 198 197 495 496 497 497 496 498 497 498 318 318 498 499 318 499 319 500 501 497 497 501 502 497 502 495 503 504 505 505 504 506 505 506 507 407 508 405 405 508 509 405 509 505 505 509 510 505 510 503 511 512 513 513 512 514 513 514 515 411 516 412 412 516 517 412 517 513 513 517 518 513 518 511 417 519 415 415 519 520 415 520 521 352 522 350 350 522 523 350 523 524 524 523 525 524 525 139 139 525 526 139 526 137 425 527 426 426 527 528 426 528 348 348 528 529 348 529 349 13 530 14 14 530 531 14 531 437 437 531 532 437 532 438 22 24 533 533 24 534 533 534 535 262 536 260 260 536 537 260 537 538 538 537 535 538 535 539 539 535 534 375 540 68 68 540 541 68 541 376 542 543 544 544 543 115 544 115 545 545 115 380 462 546 460 460 546 547 460 547 548 548 547 549 548 549 550 550 549 551 552 553 554 554 553 555 554 555 178 178 555 556 178 556 179 384 557 385 385 557 558 385 558 554 554 558 559 554 559 552 560 561 562 562 561 255 562 255 563 563 255 254 484 564 483 483 564 565 483 565 566 567 568 569 569 568 570 569 570 313 313 570 571 313 571 328 514 572 515 515 572 573 515 573 574 337 336 575 575 336 576 575 576 577 216 578 214 214 578 579 214 579 343 343 579 580 343 580 341 456 581 68 68 581 582 68 582 583 584 585 586 586 585 587 118 588 119 119 588 589 119 589 590 590 591 119 119 591 592 119 592 587 587 592 593 587 593 586 594 595 596 169 597 170 170 597 598 170 598 596 596 598 599 596 599 594 600 601 602 464 603 465 465 603 604 465 604 174 174 604 605 174 605 172 253 252 465 465 252 606 465 606 463 551 607 550 550 607 608 550 608 609 610 611 612 612 611 613 612 613 614 506 615 507 507 615 616 507 616 617 617 616 618 617 618 500 500 618 619 500 619 501 620 621 622 622 621 623 622 623 624 624 623 625 624 625 569 569 625 626 569 626 567 574 627 515 515 627 628 515 628 629 629 628 630 629 630 622 622 630 631 622 631 620 583 632 68 68 632 633 68 633 374 634 635 636 636 635 637 636 637 253 253 637 638 253 638 251 608 639 609 609 639 640 609 640 641 641 640 642 641 642 643 643 642 644 643 644 645 645 644 646 645 646 634 634 646 647 634 647 635 648 649 650 650 649 561 650 561 651 651 561 560 613 652 614 614 652 653 614 653 654 654 653 655 654 655 656 491 657 492 492 657 658 492 658 612 612 658 659 612 659 610 660 661 662 662 661 663 662 663 655 655 663 664 655 664 656 665 666 576 576 666 667 576 667 577 668 669 670 670 669 671 670 671 665 665 671 672 665 672 666 584 673 585 585 673 674 585 674 675 675 674 676 675 676 677 678 679 680 680 679 5 680 5 681 681 5 382 682 683 602 602 683 684 602 684 460 460 684 685 460 685 461 121 686 122 122 686 687 122 687 602 602 687 688 602 688 600 689 690 691 691 690 692 691 692 693 693 692 694 693 694 385 385 694 695 385 695 383 520 696 521 521 696 697 521 697 698 698 697 699 698 699 700 700 699 668 700 668 701 701 668 670 676 702 677 677 702 703 677 703 704 704 703 705 704 705 706 706 705 707 706 707 542 542 707 708 542 708 543 594 709 595 595 709 710 595 710 711 711 710 712 711 712 713 714 715 602 689 691 716 716 691 717 716 717 718 648 719 649 649 719 720 649 720 721 721 720 722 721 722 723 723 722 724 723 724 725 725 724 726 566 727 483 483 727 728 483 728 662 662 728 729 662 729 660 712 730 713 713 730 731 713 731 678 678 731 732 678 732 679 601 733 602 602 733 734 602 734 735 735 736 602 602 736 737 602 737 738 738 739 602 602 739 740 602 740 741 741 742 602 602 742 743 602 743 744 715 745 602 602 745 746 602 746 747 747 748 602 602 748 749 602 749 682 744 750 602 602 750 751 602 751 752 752 753 602 602 753 754 602 754 714 717 755 718 718 755 756 718 756 757 757 756 725 757 725 758 758 725 726 759 760 761 762 763 764 765 766 767 765 767 768 769 770 759 771 772 773 774 775 776 777 778 779 779 778 780 779 780 781 782 783 777 777 783 784 777 784 778 785 786 764 787 788 789 790 791 792 792 791 793 792 793 794 769 795 770 770 795 796 770 796 797 776 775 798 799 800 801 801 800 802 801 802 776 776 802 803 776 803 774 790 792 804 804 792 805 804 805 806 766 807 767 767 807 808 767 808 809 810 811 812 781 813 779 779 813 814 779 814 801 801 814 815 801 815 799 789 788 816 812 811 817 817 811 818 817 818 819 820 821 822 822 821 823 822 823 824 824 823 772 825 826 827 788 828 816 816 828 829 816 829 830 830 829 831 832 833 834 834 833 835 836 837 805 805 837 838 805 838 806 839 840 817 817 840 841 817 841 842 819 843 817 817 843 844 817 844 839 810 812 845 845 812 846 845 846 847 848 849 850 797 851 770 770 851 852 770 852 853 854 855 856 857 858 782 782 858 859 782 859 783 860 861 857 857 861 862 857 862 858 768 767 863 863 767 864 863 864 865 865 866 863 863 866 867 863 867 786 786 867 868 786 868 764 764 868 869 764 869 762 870 871 789 789 871 872 789 872 787 873 874 875 875 874 876 875 876 877 793 878 794 794 878 879 794 879 880 836 805 881 881 805 882 881 882 883 883 882 884 884 882 885 884 885 886 887 888 885 885 888 889 885 889 886 890 891 887 887 891 892 887 892 888 771 848 893 893 848 894 895 824 853 853 824 772 853 772 770 770 772 771 896 897 898 899 900 901 901 900 902 901 902 903 903 902 904 905 906 899 899 906 907 899 907 900 908 909 910 910 909 911 910 911 912 913 914 860 860 914 915 860 915 861 916 917 764 764 917 918 764 918 785 763 919 764 764 919 920 764 920 921 922 923 924 835 925 834 834 925 926 834 926 927 877 876 928 928 876 929 928 929 930 931 932 933 933 932 934 933 934 929 929 934 935 929 935 930 936 937 938 938 937 939 938 939 940 940 939 941 941 939 942 942 939 943 942 943 944 945 946 846 846 946 947 846 947 847 821 948 823 823 948 949 823 949 950 951 952 953 850 954 848 848 954 955 848 955 894 956 957 958 959 960 961 962 963 964 964 963 965 964 965 961 961 965 966 961 966 959 904 967 903 903 967 968 903 968 969 896 970 897 897 970 971 897 971 972 972 971 973 972 973 974 975 976 977 977 976 978 979 980 981 982 983 984 984 983 985 984 985 905 905 985 986 905 986 906 987 988 982 982 988 989 982 989 983 990 991 769 992 993 924 924 993 994 924 994 995 995 994 996 995 996 997 997 996 832 997 832 831 831 832 834 831 834 830 809 998 767 767 998 999 767 999 1000 1000 999 1001 1000 1001 890 890 1001 1002 890 1002 891 1003 1004 1005 1005 1004 1006 1005 1006 1007 841 1008 842 842 1008 1009 842 1009 1010 1010 1009 1011 1010 1011 1012 1012 1011 1013 1012 1013 1014 1015 1016 1017 1017 1016 1018 1017 1018 1019 936 1020 937 937 1020 1021 937 1021 1022 1022 1021 1023 1022 1023 1017 1017 1023 1024 1017 1024 1025 949 1026 950 950 1026 1027 950 1027 1028 1028 1027 1029 1028 1029 945 945 1029 1030 945 1030 946 773 1031 771 771 1031 1032 771 1032 848 848 1032 951 848 951 1033 1033 951 953 1034 1035 1036 1036 1035 954 1036 954 1037 1037 954 850 926 1038 927 927 1038 1039 927 1039 1040 1041 1042 1043 957 1044 958 958 1044 1045 958 1045 827 827 1045 1046 827 1046 825 1047 1048 1049 1049 1048 1050 1051 1052 1053 769 1054 1055 1055 1054 1056 1056 1057 1055 1055 1057 1058 1055 1058 910 910 1058 1059 910 1059 908 921 1060 764 764 1060 1061 764 1061 789 789 1061 1062 789 1062 870 1063 1064 1065 1065 1064 1066 1065 1066 1067 873 1068 874 874 1068 1069 874 1069 1063 1063 1069 1070 1063 1070 1064 1071 1072 1073 1073 1072 1074 1073 1074 1075 1075 1074 1076 1075 1076 1077 1078 1079 1071 1071 1079 1080 1071 1080 1072 1018 1081 1019 1019 1081 1082 1019 1082 1071 1071 1082 1083 1071 1083 1078 1025 1084 1017 1017 1084 1085 1017 1085 1015 944 943 1086 1086 943 1087 1086 1087 1088 1089 1090 1091 1091 1090 1092 1091 1092 1093 1041 1043 1094 1095 1096 1097 1097 1096 1098 1097 1098 958 958 1098 1099 958 1099 956 1100 1101 1102 1102 1101 1103 1102 1103 1095 1095 1103 1104 1095 1104 1096 1105 1106 1102 1102 1106 1107 1102 1107 1100 959 1108 960 960 1108 1109 960 1109 1048 1048 1109 1110 1048 1110 1050 1111 1112 1113 1113 1112 1114 1113 1114 1115 1115 1114 1116 1115 1116 1117 1052 1118 1053 1053 1118 1119 1053 1119 898 898 1119 1120 898 1120 896 1121 1122 1123 1123 1122 1124 1121 1123 1125 1125 1123 1126 1125 1126 1127 1127 1126 1128 1128 1126 1129 1128 1129 1130 1131 1132 1133 1134 1135 964 964 1135 1136 964 1136 962 1137 1138 1139 1140 1141 1142 1142 1141 1143 1142 1143 1144 1145 1146 1147 1147 1146 1148 855 1149 856 856 1149 1150 856 1150 1151 1151 1150 1152 1151 1152 982 982 1152 1153 982 1153 987 1154 1155 1156 1156 1155 1157 1156 1157 1158 1158 1157 1159 1158 1159 856 856 1159 1160 856 1160 854 911 1161 912 912 1161 1162 912 1162 1163 1163 1162 1164 1163 1164 1165 1165 1164 1155 1165 1155 1166 1166 1155 1154 1167 1168 769 916 1169 917 917 1169 1170 917 1170 1171 1171 1170 1172 1171 1172 913 913 1172 1173 913 1173 914 923 1174 924 924 1174 1175 924 1175 992 1176 1177 931 931 1177 1178 931 1178 932 1179 1180 1181 1181 1180 1182 1181 1182 1183 1183 1182 1184 1183 1184 1185 879 1186 880 880 1186 1187 880 1187 1181 1181 1187 1188 1181 1188 1179 1014 1189 1012 1012 1189 1190 1012 1190 1005 1005 1190 1191 1005 1191 1003 1192 1193 1194 1194 1193 1195 1194 1195 1196 1196 1195 1197 1197 1198 1196 1196 1198 1199 1196 1199 1089 1089 1199 1200 1089 1200 1090 775 1201 798 798 1201 1202 798 1202 1203 1203 1202 1204 1203 1204 1205 1205 1204 1206 1205 1206 1207 1207 1206 1208 1207 1208 1192 1192 1208 1209 1192 1209 1193 1210 1211 1212 1039 1213 1040 1040 1213 1214 1040 1214 1215 1215 1214 1094 1215 1094 1216 1216 1094 1043 1217 1218 1041 1041 1218 1219 1041 1219 1042 1220 1221 1222 1222 1221 1223 1224 1225 1226 1226 1225 1227 1226 1227 1228 1228 1227 1229 1228 1229 1222 1222 1229 1230 1222 1230 1220 1231 1232 1233 1233 1232 1234 1233 1234 1235 1235 1234 1236 1047 1237 1048 1048 1237 1238 1048 1238 1234 1234 1238 1239 1234 1239 1236 1240 1241 1242 974 1243 972 972 1243 1244 972 1244 1245 1245 1244 1246 1245 1246 1247 969 1248 903 903 1248 1249 903 1249 1113 1113 1249 1250 1113 1250 1111 1251 1252 1253 1130 1129 1254 1254 1129 1255 1254 1255 1256 975 1257 976 976 1257 1258 976 1258 1259 1260 1261 1262 1262 1261 1263 1262 1263 1134 1134 1263 1264 1134 1264 1135 1265 1266 1267 1267 1266 1141 1267 1141 1268 1268 1141 1140 1269 1270 1143 1143 1270 1271 1143 1271 1144 1145 1272 1146 1146 1272 1273 1146 1273 978 978 1273 1274 978 1274 977 1275 1276 1277 1277 1276 1278 1277 1278 1148 1148 1278 1279 1148 1279 1147 759 761 769 769 761 1280 769 1280 990 991 1281 769 769 1281 1282 769 1282 1283 769 1284 1285 1286 1287 1176 1176 1287 1288 1288 1289 1176 1176 1289 1290 1176 1290 1177 1007 1291 1005 1005 1291 1292 1005 1292 1293 1293 1292 1294 1293 1294 1295 1295 1294 1077 1295 1077 1296 1296 1077 1076 1093 1297 1091 1091 1297 1298 1091 1298 1087 1087 1298 1299 1087 1299 1088 1212 1300 1210 1210 1300 1301 1210 1301 951 951 1301 1302 951 1302 952 1303 1304 1305 1305 1304 1306 1305 1306 1105 1105 1306 1307 1105 1307 1308 1308 1309 1105 1105 1309 1310 1105 1310 1106 1221 1311 1223 1223 1311 1312 1223 1312 1305 1305 1312 1313 1305 1313 1303 1231 1314 1232 1232 1314 1315 1232 1315 1224 1224 1315 1316 1224 1316 1225 1241 1317 1242 1242 1317 1318 1242 1318 1319 1133 1320 1131 1131 1320 1321 1131 1321 1255 1255 1321 1322 1255 1322 1256 1132 1131 1323 1323 1131 1324 1323 1324 1325 1326 1327 1328 1328 1327 1329 1328 1329 1330 980 1331 981 981 1331 1332 981 1332 1269 1269 1332 1333 1269 1333 1270 979 981 1334 1334 981 1335 1334 1335 1336 1337 1338 1339 1339 1338 1340 1339 1340 1275 1275 1340 1341 1275 1341 1276 1336 1335 1342 1342 1335 1343 1342 1343 1344 1345 1346 769 769 1346 1347 1348 1349 769 769 1349 1350 769 1350 1351 1351 1352 769 769 1352 1353 769 1353 1284 1285 1354 769 769 1354 1355 769 1355 1054 922 924 1356 1356 924 1357 1356 1357 1358 1359 1360 1361 1361 1360 1065 1362 1363 1286 1286 1363 1364 1286 1364 1287 1185 1365 1183 1183 1365 1366 1183 1366 1367 1367 1366 1368 1367 1368 1369 1369 1368 1370 826 1371 827 827 1371 1372 827 1372 1217 1217 1372 1373 1217 1373 1218 1117 1374 1115 1115 1374 1375 1115 1375 1376 1376 1375 1377 1376 1377 1378 1247 1379 1245 1245 1379 1380 1245 1380 1381 1381 1380 1382 1381 1382 1242 1242 1382 1383 1242 1383 1240 1252 1384 1253 1253 1384 1385 1253 1385 1053 1053 1385 1386 1053 1386 1051 1122 1387 1124 1124 1387 1388 1124 1388 1389 1390 1391 1392 1392 1391 1393 1138 1394 1139 1139 1394 1395 1139 1395 1262 1262 1395 1396 1262 1396 1260 1326 1397 1327 1327 1397 1398 1327 1398 1139 1139 1398 1399 1139 1399 1137 1400 1401 1402 1283 1403 769 769 1403 1404 769 1404 1405 1067 1406 1065 1065 1406 1407 1065 1407 1361 1408 1409 1410 1410 1409 1411 1410 1411 1362 1362 1411 1412 1362 1412 1363 1318 1413 1319 1319 1413 1414 1319 1414 1415 1415 1414 1416 1415 1416 1417 1417 1416 1418 1417 1418 1378 1378 1418 1419 1378 1419 1376 1420 1421 1253 1253 1421 1422 1253 1422 1251 1423 1324 1424 1424 1324 1425 1423 1426 1324 1324 1426 1427 1324 1427 1325 1390 1428 1391 1391 1428 1429 1391 1429 1425 1425 1429 1430 1425 1430 1424 1259 1431 976 976 1431 1432 976 1432 1433 1433 1432 1434 1433 1434 1435 1265 1436 1266 1266 1436 1437 1266 1437 1438 1438 1437 1439 1438 1439 1440 1344 1343 1441 1441 1343 1442 1441 1442 1443 1401 1444 1402 1402 1444 1445 1402 1445 1442 1442 1445 1446 1442 1446 1443 1168 1447 769 769 1447 1448 769 1448 1345 1347 1449 769 769 1449 1450 769 1450 1348 1435 1451 1433 1433 1451 1452 1433 1452 1393 1393 1452 1453 1393 1453 1392 1440 1454 1438 1438 1454 1455 1438 1455 1456 1456 1455 1457 1456 1457 1458 1458 1457 1459 1458 1459 1329 1329 1459 1460 1329 1460 1330 1461 1462 1463 1463 1462 1464 1463 1464 1465 1465 1464 1466 1465 1466 1467 1461 1463 1468 1468 1463 1469 1468 1469 1470 1405 1471 769 769 1471 1472 769 1472 1167 1359 1473 1360 1360 1473 1474 1360 1474 1475 1475 1474 1476 1475 1476 1477 1477 1476 1478 1477 1478 1479 1479 1478 1480 1479 1480 1481 1481 1480 1482 1481 1482 1358 1358 1482 1483 1358 1483 1356 1370 1484 1369 1369 1484 1485 1369 1485 1486 1486 1485 1487 1486 1487 1488 1488 1487 1489 1488 1489 1490 1490 1489 1491 1490 1491 1408 1408 1491 1492 1408 1492 1409 1388 1493 1389 1389 1493 1494 1389 1494 1495 1495 1494 1496 1497 1498 1499 1499 1498 1470 1499 1470 1500 1500 1470 1469 1497 1501 1498 1498 1501 1502 1498 1502 1339 1339 1502 1503 1339 1503 1337 1467 1504 1465 1465 1504 1505 1465 1505 1402 1402 1505 1506 1402 1506 1400 1496 1507 1495 1495 1507 1508 1495 1508 1509 1509 1508 1510 1509 1510 1511 1511 1510 1512 1511 1512 1513 1513 1512 1514 1513 1514 1515 1515 1514 1516 1515 1516 1420 1420 1516 1517 1420 1517 1421 155 156 1040 1040 156 927 229 155 1215 1215 155 1040 227 229 1518 1518 229 1519 225 227 1520 1520 227 1518 366 225 1521 1521 225 1522 365 366 1523 1523 366 1524 363 365 1218 1218 365 1219 448 363 1373 1373 363 1218 449 448 1372 1372 448 1373 450 449 1525 1525 449 1526 64 450 826 826 450 1371 65 64 1527 1527 64 1528 222 65 1046 1046 65 825 223 222 1529 1529 222 1530 224 223 1044 1044 223 1045 217 224 957 957 224 1044 218 217 956 956 217 957 220 218 1531 1531 218 1532 221 220 1533 1533 220 1534 153 221 1535 1535 221 1536 154 153 1104 1104 153 1096 148 154 1103 1103 154 1104 150 148 1101 1101 148 1103 151 150 1537 1537 150 1538 440 151 1107 1107 151 1100 441 440 1106 1106 440 1107 443 441 1539 1539 441 1540 444 443 1309 1309 443 1310 445 444 1308 1308 444 1309 446 445 1541 1541 445 1542 447 446 1543 1543 446 1541 12 447 1304 1304 447 1306 13 12 1303 1303 12 1304 530 13 1544 1544 13 1545 531 530 1546 1546 530 1544 532 531 1311 1311 531 1312 438 532 1547 1547 532 1548 439 438 1220 1220 438 1221 436 439 1230 1230 439 1220 434 436 1229 1229 436 1230 432 434 1227 1227 434 1229 430 432 1225 1225 432 1227 362 430 1316 1316 430 1225 360 362 1315 1315 362 1316 60 360 1549 1549 360 1550 61 60 1231 1231 60 1314 359 61 1233 1233 61 1231 357 359 1235 1235 359 1233 358 357 1551 1551 357 1552 427 358 1239 1239 358 1236 428 427 1553 1553 427 1554 429 428 1237 1237 428 1238 146 429 1555 1555 429 1556 145 146 1557 1557 146 1555 143 145 1558 1558 145 1559 353 143 1110 1110 143 1050 354 353 1109 1109 353 1110 355 354 1108 1108 354 1109 141 355 959 959 355 1108 142 141 1560 1560 141 1561 56 142 965 965 142 966 58 56 963 963 56 965 59 58 1562 1562 58 1563 325 59 1136 1136 59 962 326 325 1135 1135 325 1136 408 326 1264 1264 326 1135 409 408 1564 1564 408 1565 410 409 1566 1566 409 1564 401 410 1567 1567 410 1568 402 401 1569 1569 401 1570 404 402 1395 1395 402 1396 406 404 1394 1394 404 1395 407 406 1138 1138 406 1394 508 407 1571 1571 407 1572 509 508 1573 1573 508 1571 510 509 1574 1574 509 1573 503 510 1397 1397 510 1398 504 503 1575 1575 503 1576 506 504 1328 1328 504 1326 615 506 1330 1330 506 1328 616 615 1460 1460 615 1330 618 616 1459 1459 616 1460 619 618 1457 1457 618 1459 501 619 1455 1455 619 1457 502 501 1577 1577 501 1578 495 502 1579 1579 502 1577 496 495 1439 1439 495 1440 498 496 1437 1437 496 1439 499 498 1436 1436 498 1437 319 499 1265 1265 499 1436 321 319 1267 1267 319 1265 322 321 1580 1580 321 1581 323 322 1582 1582 322 1583 324 323 1584 1584 323 1582 200 324 1144 1144 324 1142 201 200 1585 1585 200 1586 203 201 1270 1270 201 1271 301 203 1333 1333 203 1270 302 301 1332 1332 301 1333 303 302 1331 1331 302 1332 296 303 1587 1587 303 1588 297 296 1589 1589 296 1590 299 297 1334 1334 297 979 488 299 1336 1336 299 1334 489 488 1342 1342 488 1336 490 489 1344 1344 489 1342 486 490 1591 1591 490 1592 487 486 1443 1443 486 1441 482 487 1446 1446 487 1443 484 482 1593 1593 482 1594 564 484 1444 1444 484 1445 565 564 1595 1595 564 1596 566 565 1597 1597 565 1595 727 566 1506 1506 566 1400 728 727 1598 1598 727 1599 729 728 1504 1504 728 1505 660 729 1600 1600 729 1601 661 660 1466 1466 660 1467 663 661 1464 1464 661 1466 664 663 1602 1602 663 1603 656 664 1604 1604 664 1605 654 656 1606 1606 656 1607 614 654 1608 1608 654 1606 612 614 1609 1609 614 1608 492 612 1339 1339 612 1498 198 492 1275 1275 492 1339 199 198 1277 1277 198 1275 308 199 1610 1610 199 1611 306 308 1146 1146 308 1148 315 306 1612 1612 306 1613 313 315 1614 1614 315 1615 569 313 1616 1616 313 1614 624 569 1393 1393 569 1433 622 624 1391 1391 624 1393 629 622 1425 1425 622 1391 515 629 1324 1324 629 1425 513 515 1617 1617 515 1618 412 513 1619 1619 513 1617 331 412 1129 1129 412 1255 205 331 1126 1126 331 1129 333 205 1620 1620 205 1621 336 333 1622 1622 333 1623 576 336 1624 1624 336 1625 665 576 1626 1626 576 1624 670 665 1509 1509 665 1495 701 670 1511 1511 670 1509 700 701 1513 1513 701 1511 698 700 1515 1515 700 1513 521 698 1627 1627 698 1628 415 521 1629 1629 521 1627 208 415 1630 1630 415 1631 92 208 898 898 208 1053 93 92 1632 1632 92 1633 134 93 1634 1634 93 1635 139 134 1636 1636 134 1637 524 139 1381 1381 139 1245 350 524 1638 1638 524 1639 348 350 1319 1319 350 1242 426 348 1415 1415 348 1319 424 426 1417 1417 426 1415 216 424 1640 1640 424 1641 578 216 1377 1377 216 1378 579 578 1375 1375 578 1377 580 579 1642 1642 579 1643 341 580 1117 1117 580 1374 342 341 1644 1644 341 1645 344 342 1114 1114 342 1116 346 344 1646 1646 344 1647 347 346 1111 1111 346 1112 421 347 1250 1250 347 1111 422 421 1249 1249 421 1250 423 422 1248 1248 422 1249 52 423 969 969 423 1248 53 52 1648 1648 52 1649 54 53 967 967 53 968 50 54 904 904 54 967 51 50 902 902 50 904 45 51 1650 1650 51 1651 47 45 1652 1652 45 1650 89 47 1653 1653 47 1652 90 89 986 986 89 906 91 90 985 985 90 986 41 91 1654 1654 91 1655 86 41 989 989 41 983 87 86 988 988 86 989 88 87 1656 1656 87 1657 291 88 1658 1658 88 1656 292 291 1152 1152 291 1153 294 292 1150 1150 292 1152 295 294 1149 1149 294 1150 192 295 1659 1659 295 1660 193 192 1661 1661 192 1662 195 193 1160 1160 193 854 196 195 1159 1159 195 1160 475 196 1663 1663 196 1664 473 475 1155 1155 475 1157 479 473 1164 1164 473 1155 480 479 1665 1665 479 1666 290 480 1161 1161 480 1162 288 290 1667 1667 290 1668 286 288 909 909 288 911 398 286 908 908 286 909 399 398 1669 1669 398 1670 400 399 1058 1058 399 1059 281 400 1057 1057 400 1058 282 281 1056 1056 281 1057 284 282 1671 1671 282 1672 285 284 1673 1673 284 1674 191 285 1675 1675 285 1673 189 191 1285 1285 191 1354 38 189 1676 1676 189 1677 39 38 1678 1678 38 1676 40 39 1352 1352 39 1353 37 40 1679 1679 40 1680 85 37 1681 1681 37 1682 84 85 1349 1349 85 1350 82 84 1348 1348 84 1349 278 82 1450 1450 82 1348 279 278 1449 1449 278 1450 280 279 1683 1683 279 1684 273 280 1346 1346 280 1347 274 273 1345 1345 273 1346 276 274 1448 1448 274 1345 395 276 1685 1685 276 1686 396 395 1168 1168 395 1447 397 396 1167 1167 396 1168 264 397 1472 1472 397 1167 265 264 1471 1471 264 1472 267 265 1687 1687 265 1688 268 267 1689 1689 267 1690 269 268 1691 1691 268 1692 271 269 1283 1283 269 1403 272 271 1693 1693 271 1694 130 272 1281 1281 272 1282 131 130 991 991 130 1281 263 131 990 990 131 991 75 263 1280 1280 263 990 76 75 761 761 75 1280 78 76 760 760 76 761 79 78 759 759 78 760 80 79 770 770 79 759 18 80 771 771 80 770 17 18 893 893 18 771 15 17 894 894 17 893 19 15 955 955 15 894 8 19 954 954 19 955 32 8 1035 1035 8 954 33 32 1695 1695 32 1696 34 33 1697 1697 33 1695 6 34 1037 1037 34 1036 7 6 1698 1698 6 1699 20 7 849 849 7 850 16 20 848 848 20 849 21 16 1033 1033 16 848 9 21 953 953 21 1033 10 9 952 952 9 953 128 10 1302 1302 10 952 127 128 1301 1301 128 1302 125 127 1700 1700 127 1701 123 125 1212 1212 125 1300 124 123 1211 1211 123 1212 126 124 1210 1210 124 1211 11 126 951 951 126 1210 81 11 1032 1032 11 951 25 81 1702 1702 81 1703 26 25 1704 1704 25 1705 28 26 772 772 26 773 30 28 823 823 28 772 105 30 950 950 30 823 245 105 1028 1028 105 950 243 245 1706 1706 245 1707 108 243 1708 1708 243 1706 110 108 1709 1709 108 1708 68 110 817 817 110 812 177 68 842 842 68 817 120 177 1710 1710 177 1711 121 120 1712 1712 120 1710 686 121 1713 1713 121 1712 687 686 1714 1714 686 1713 688 687 1295 1295 687 1293 600 688 1296 1296 688 1295 601 600 1076 1076 600 1296 733 601 1074 1074 601 1076 734 733 1715 1715 733 1716 735 734 1080 1080 734 1072 736 735 1717 1717 735 1718 737 736 1078 1078 736 1079 738 737 1083 1083 737 1078 739 738 1082 1082 738 1083 740 739 1081 1081 739 1082 741 740 1018 1018 740 1081 742 741 1016 1016 741 1018 743 742 1015 1015 742 1016 744 743 1719 1719 743 1720 750 744 1084 1084 744 1085 751 750 1025 1025 750 1084 752 751 1024 1024 751 1025 753 752 1023 1023 752 1024 754 753 1021 1021 753 1023 714 754 1721 1721 754 1722 715 714 936 936 714 1020 745 715 938 938 715 936 746 745 940 940 745 938 747 746 941 941 746 940 748 747 942 942 747 941 749 748 1723 1723 748 1724 682 749 1086 1086 749 944 683 682 1725 1725 682 1726 684 683 1727 1727 683 1725 685 684 1298 1298 684 1299 461 685 1297 1297 685 1298 462 461 1728 1728 461 1729 546 462 1092 1092 462 1093 547 546 1730 1730 546 1731 549 547 1200 1200 547 1090 551 549 1199 1199 549 1200 607 551 1732 1732 551 1733 608 607 1197 1197 607 1198 639 608 1195 1195 608 1197 640 639 1193 1193 639 1195 642 640 1209 1209 640 1193 644 642 1208 1208 642 1209 646 644 1206 1206 644 1208 647 646 1204 1204 646 1206 635 647 1734 1734 647 1735 637 635 1201 1201 635 1202 638 637 775 775 637 1201 251 638 774 774 638 775 252 251 1736 1736 251 1737 606 252 1738 1738 252 1736 463 606 1739 1739 606 1740 464 463 1741 1741 463 1739 603 464 1742 1742 464 1743 604 603 1744 1744 603 1742 605 604 813 813 604 814 172 605 781 781 605 813 173 172 780 780 172 781 175 173 778 778 173 780 176 175 784 784 175 778 169 176 1745 1745 176 1746 597 169 859 859 169 783 598 597 1747 1747 597 1748 599 598 862 862 598 858 594 599 861 861 599 862 709 594 915 915 594 861 710 709 1749 1749 709 1750 712 710 1173 1173 710 914 730 712 1751 1751 712 1752 731 730 1170 1170 730 1172 732 731 1169 1169 731 1170 679 732 916 916 732 1169 5 679 764 764 679 916 101 5 789 789 5 764 95 101 816 816 101 789 96 95 830 830 95 816 98 96 834 834 96 830 156 98 927 927 98 834 2 1 926 926 1 1038 1 0 1038 1038 0 1039 0 231 1039 1039 231 1213 231 230 1753 1753 230 1754 230 228 1214 1214 228 1094 228 226 1094 1094 226 1041 226 364 1755 1755 364 1756 364 63 1217 1217 63 827 63 219 1757 1757 219 1758 219 152 958 958 152 1097 152 147 1097 1097 147 1095 147 149 1095 1095 149 1102 149 442 1102 1102 442 1105 442 14 1105 1105 14 1305 14 437 1305 1305 437 1223 437 435 1759 1759 435 1760 435 433 1222 1222 433 1228 433 431 1761 1761 431 1762 431 361 1762 1762 361 1763 361 62 1224 1224 62 1232 62 356 1232 1232 356 1234 356 144 1234 1234 144 1048 144 140 1764 1764 140 1765 140 55 960 960 55 961 55 57 1766 1766 57 1767 57 327 964 964 327 1134 327 403 1134 1134 403 1262 403 405 1262 1262 405 1139 405 505 1139 1139 505 1327 505 507 1327 1327 507 1329 507 617 1329 1329 617 1458 617 500 1458 1458 500 1456 500 497 1456 1456 497 1438 497 318 1438 1438 318 1266 318 320 1768 1768 320 1769 320 202 1141 1141 202 1143 202 204 1770 1770 204 1771 204 298 1269 1269 298 981 298 300 981 981 300 1335 300 485 1772 1772 485 1773 485 481 1343 1343 481 1442 481 483 1442 1442 483 1402 483 662 1774 1774 662 1775 662 655 1465 1465 655 1463 655 653 1463 1463 653 1469 653 652 1469 1469 652 1500 652 613 1500 1500 613 1499 613 611 1499 1499 611 1497 611 610 1776 1776 610 1777 610 659 1501 1501 659 1502 659 658 1778 1778 658 1779 658 657 1780 1780 657 1781 657 491 1337 1337 491 1338 491 493 1782 1782 493 1783 493 494 1340 1340 494 1341 494 197 1341 1341 197 1276 197 310 1276 1276 310 1278 310 309 1278 1278 309 1279 309 307 1279 1279 307 1147 307 305 1784 1784 305 1785 305 304 1145 1145 304 1272 304 317 1786 1786 317 1787 317 316 1273 1273 316 1274 316 314 1274 1274 314 977 314 312 1788 1788 312 1789 312 311 975 975 311 1257 311 330 1790 1790 330 1791 330 329 1258 1258 329 1259 329 328 1792 1792 328 1793 328 571 1431 1431 571 1432 571 570 1794 1794 570 1795 570 568 1796 1796 568 1797 568 567 1435 1435 567 1451 567 626 1451 1451 626 1452 626 625 1452 1452 625 1453 625 623 1453 1453 623 1392 623 621 1392 1392 621 1390 621 620 1390 1390 620 1428 620 631 1428 1428 631 1429 631 630 1798 1798 630 1799 630 628 1430 1430 628 1424 628 627 1424 1424 627 1423 627 574 1423 1423 574 1426 574 573 1426 1426 573 1427 573 572 1427 1427 572 1325 572 514 1325 1325 514 1323 514 512 1800 1800 512 1801 512 511 1132 1132 511 1133 511 518 1802 1802 518 1803 518 517 1320 1320 517 1321 517 516 1321 1321 516 1322 516 411 1322 1322 411 1256 411 413 1804 1804 413 1805 413 414 1806 1806 414 1807 414 207 1130 1130 207 1128 207 206 1128 1128 206 1127 206 332 1127 1127 332 1125 332 334 1125 1125 334 1121 334 335 1121 1121 335 1122 335 337 1122 1122 337 1387 337 575 1808 1808 575 1809 575 577 1388 1388 577 1493 577 667 1493 1493 667 1494 667 666 1494 1494 666 1496 666 672 1496 1496 672 1507 672 671 1810 1810 671 1811 671 669 1812 1812 669 1813 669 668 1510 1510 668 1512 668 699 1512 1512 699 1514 699 697 1514 1514 697 1516 697 696 1516 1516 696 1517 696 520 1517 1517 520 1421 520 519 1814 1814 519 1815 519 417 1422 1422 417 1251 417 416 1816 1816 416 1817 416 420 1252 1252 420 1384 420 419 1384 1384 419 1385 419 418 1818 1818 418 1819 418 210 1386 1386 210 1051 210 209 1051 1051 209 1052 209 340 1820 1820 340 1821 340 339 1118 1118 339 1119 339 338 1119 1119 338 1120 338 94 1120 1120 94 896 94 136 896 896 136 970 136 135 970 970 135 971 135 133 971 971 133 973 133 132 973 973 132 974 132 213 974 974 213 1243 213 212 1243 1243 212 1244 212 211 1822 1822 211 1823 211 138 1824 1824 138 1825 138 137 1247 1247 137 1379 137 526 1379 1379 526 1380 526 525 1380 1380 525 1382 525 523 1382 1382 523 1383 523 522 1383 1383 522 1240 522 352 1240 1240 352 1241 352 351 1241 1241 351 1317 351 349 1317 1317 349 1318 349 529 1826 1826 529 1827 529 528 1828 1828 528 1829 528 527 1414 1414 527 1416 527 425 1416 1416 425 1418 425 215 1418 1418 215 1419 215 214 1419 1419 214 1376 214 343 1376 1376 343 1115 343 345 1115 1115 345 1113 345 49 1113 1113 49 903 49 44 1830 1830 44 1831 44 46 901 901 46 899 46 48 1832 1832 48 1833 48 43 1834 1834 43 1835 43 42 984 984 42 982 42 293 1836 1836 293 1837 293 194 1151 1151 194 856 194 477 856 856 477 1158 477 476 1158 1158 476 1156 476 474 1156 1156 474 1154 474 472 1154 1154 472 1166 472 471 1838 1838 471 1839 471 478 1165 1165 478 1163 478 289 1163 1163 289 912 289 287 912 912 287 910 287 283 1840 1840 283 1841 283 190 1841 1841 190 1842 190 36 769 769 36 795 36 35 795 795 35 796 35 83 1843 1843 83 1844 83 275 797 797 275 851 275 277 851 851 277 852 277 266 1845 1845 266 1846 266 270 1846 1846 270 1847 270 129 1847 1847 129 1848 129 77 1848 1848 77 1849 77 27 1849 1849 27 1850 27 29 820 820 29 821 29 31 1851 1851 31 1852 31 104 1852 1852 104 1853 104 106 949 949 106 1026 106 247 1026 1026 247 1027 247 246 1854 1854 246 1855 246 244 1029 1029 244 1030 244 242 1030 1030 242 946 242 241 946 946 241 947 241 107 1856 1856 107 1857 107 109 1857 1857 109 1858 109 111 845 845 111 810 111 377 810 810 377 811 377 376 811 811 376 818 376 541 1859 1859 541 1860 541 540 819 819 540 843 540 375 843 843 375 844 375 374 1861 1861 374 1862 374 633 1863 1863 633 1864 633 632 840 840 632 841 632 583 841 841 583 1008 583 582 1865 1865 582 1866 582 581 1009 1009 581 1011 581 456 1011 1011 456 1013 456 455 1013 1013 455 1014 455 454 1867 1867 454 1868 454 113 1189 1189 113 1190 113 112 1869 1869 112 1870 112 168 1871 1871 168 1872 168 373 1003 1003 373 1004 373 372 1004 1004 372 1006 372 371 1873 1873 371 1874 371 370 1007 1007 370 1291 370 369 1875 1875 369 1876 369 250 1877 1877 250 1878 250 249 1879 1879 249 1880 249 248 1077 1077 248 1075 248 167 1881 1881 167 1882 167 166 1073 1073 166 1071 166 165 1071 1071 165 1019 165 70 1019 1019 70 1017 70 69 1017 1017 69 1022 69 67 1022 1022 67 937 67 66 937 937 66 939 66 122 1883 1883 122 1884 122 602 1884 1884 602 1885 602 460 1886 1886 460 1887 460 548 1091 1091 548 1089 548 550 1089 1089 550 1196 550 609 1196 1196 609 1194 609 641 1888 1888 641 1889 641 643 1192 1192 643 1207 643 645 1890 1890 645 1891 645 634 1891 1891 634 1892 634 636 1203 1203 636 798 636 253 1893 1893 253 1894 253 465 776 776 465 801 465 174 801 801 174 779 174 171 779 779 171 777 171 170 1895 1895 170 1896 170 596 1897 1897 596 1898 596 595 857 857 595 860 595 711 860 860 711 913 711 713 1899 1899 713 1900 713 678 1171 1171 678 917 678 680 1901 1901 680 1902 680 681 918 918 681 785 681 382 785 785 382 786 382 381 786 786 381 863 381 459 1903 1903 459 1904 459 458 768 768 458 765 458 457 765 765 457 766 457 116 1905 1905 116 1906 116 115 807 807 115 808 115 543 1907 1907 543 1908 543 708 809 809 708 998 708 707 998 998 707 999 707 705 999 999 705 1001 705 703 1001 1001 703 1002 703 702 1002 1002 702 891 702 676 891 891 676 892 676 674 892 892 674 888 674 673 1909 1909 673 1910 673 584 889 889 584 886 584 586 886 886 586 884 586 593 884 884 593 883 593 592 883 883 592 881 592 591 881 881 591 836 591 590 836 836 590 837 590 589 837 837 589 838 589 588 838 838 588 806 588 118 1911 1911 118 1912 118 117 804 804 117 790 117 71 790 790 71 791 71 73 1913 1913 73 1914 73 180 793 793 180 878 180 179 878 878 179 879 179 556 879 879 556 1186 556 555 1186 1186 555 1187 555 553 1915 1915 553 1916 553 552 1916 1916 552 1917 552 559 1917 1917 559 1918 559 558 1180 1180 558 1182 558 557 1182 1182 557 1184 557 384 1184 1184 384 1185 384 383 1919 1919 383 1920 383 695 1921 1921 695 1922 695 694 1922 1922 694 1923 694 692 1368 1368 692 1370 692 690 1924 1924 690 1925 690 689 1484 1484 689 1485 689 716 1485 1485 716 1487 716 718 1926 1926 718 1927 718 757 1489 1489 757 1491 757 758 1491 1491 758 1492 758 726 1928 1928 726 1929 726 724 1929 1929 724 1930 724 722 1930 1930 722 1931 722 720 1412 1412 720 1363 720 719 1932 1932 719 1933 719 648 1364 1364 648 1287 648 650 1287 1287 650 1288 650 651 1288 1288 651 1289 651 560 1289 1289 560 1290 560 562 1934 1934 562 1935 562 563 1177 1177 563 1178 563 254 1936 1936 254 1937 254 259 1938 1938 259 1939 259 258 934 934 258 935 258 468 935 935 468 930 468 467 1940 1940 467 1941 467 466 928 928 466 877 466 184 877 877 184 875 184 182 875 875 182 873 182 181 873 873 181 1068 181 386 1942 1942 386 1943 386 388 1069 1069 388 1070 388 389 1070 1070 389 1064 389 391 1064 1064 391 1066 391 470 1944 1944 470 1945 470 469 1946 1946 469 1947 469 393 1406 1406 393 1407 393 392 1407 1407 392 1361 392 188 1948 1948 188 1949 188 187 1359 1359 187 1473 187 394 1950 1950 394 1951 394 261 1951 1951 261 1952 261 260 1952 1952 260 1953 260 538 1478 1478 538 1480 538 539 1480 1480 539 1482 539 534 1954 1954 534 1955 534 24 1483 1483 24 1356 24 159 1356 1356 159 922 159 368 922 922 368 923 368 367 1956 1956 367 1957 367 234 1174 1174 234 1175 234 233 1175 1175 233 992 233 232 992 992 232 993 232 161 993 993 161 994 161 160 994 994 160 996 160 236 996 996 236 832 236 235 832 832 235 833 235 158 1958 1958 158 1959 158 157 835 835 157 925 157 2 925 925 2 926 717 691 1486 1486 691 1369 691 693 1960 1960 693 1961 693 385 1367 1367 385 1183 385 554 1962 1962 554 1963 554 178 1181 1181 178 880 178 74 880 880 74 794 74 72 794 794 72 792 72 119 1964 1964 119 1965 119 587 805 805 587 882 587 585 882 882 585 885 585 675 885 885 675 887 675 677 887 887 677 890 677 704 890 890 704 1000 704 706 1966 1966 706 1967 706 542 1967 1967 542 1968 542 544 864 864 544 865 544 545 1969 1969 545 1970 545 380 866 866 380 867 380 379 1971 1971 379 1972 379 378 868 868 378 869 378 114 869 869 114 762 114 4 762 762 4 763 4 3 763 763 3 919 3 240 1973 1973 240 1974 240 239 1975 1975 239 1976 239 238 1976 1976 238 1977 238 453 1060 1060 453 1061 453 452 1061 1061 452 1062 452 451 1978 1978 451 1979 451 164 870 870 164 871 164 163 1980 1980 163 1981 163 162 872 872 162 787 162 100 787 787 100 788 100 102 1982 1982 102 1983 102 103 828 828 103 829 103 97 829 829 97 831 97 99 831 831 99 997 99 237 997 997 237 995 237 23 995 995 23 924 23 22 924 924 22 1357 22 533 1984 1984 533 1985 533 535 1985 1985 535 1986 535 537 1481 1481 537 1479 537 536 1479 1479 536 1477 536 262 1477 1477 262 1475 262 186 1987 1987 186 1988 186 390 1360 1360 390 1065 390 387 1065 1065 387 1063 387 183 1989 1989 183 1990 183 185 874 874 185 876 185 257 876 876 257 929 257 256 929 929 256 933 256 255 1991 1991 255 1992 255 561 1992 1992 561 1993 561 649 1176 1176 649 1286 649 721 1286 1286 721 1362 721 723 1994 1994 723 1995 723 725 1410 1410 725 1408 725 756 1408 1408 756 1490 756 755 1996 1996 755 1997 755 717 1997 1997 717 1998</p>
        </triangles>
      </mesh>
    </geometry>
  </library_geometries>
  <library_visual_scenes>
    <visual_scene id="DefaultScene">
      <node id="node_0" type="NODE">
        <instance_geometry url="#geometry_0">
          <bind_material>
            <technique_common>
              <instance_material symbol="mat_0Sb" target="#mat_0"/>
            </technique_common>
          </bind_material>
        </instance_geometry>
      </node>
    </visual_scene>
  </library_visual_scenes>
  <scene>
    <instance_visual_scene url="#DefaultScene"/>
  </scene>
</COLLADA>
